(3b9,175f) (bfb,10eb) #412#1398#811#1398#1124#1257#15#13a0#1398#111a#
(b85,2833) (94d,8849) #1d25#167e#2664#23c7#1922#122a#122a#2664#167e#bda#
(26b,d45) (bfb,10eb) #955#64b#9a8#64b#c19#af1#1ba#66f#64b#5ec#
(1b1,1439) (761,a01) #86#12e7#ae4#59b#10ad#4e8#a76#59b#2be#
(20a1,65c3) (bfb,10eb) #4d49#630e#10a7#630e#5557#36a3#2ca1#4e50#630e#34f5#
(3ae5,598f) (3bef,4b67) #4896#549c#36b1#b0c#3673#41ba#3954#36b1#26e#1fd3#1dd5#
(ab7,2f5f) (53d,775) #242d#2315#756#aaf#2a60#3ae#3ae#2315#2b0c#
(10f,499) (bfb,10eb) #2c7#128#10b#128#3d3#375#450#1a4#128#3fc#
(87d,9e5) (94d,8849) #997#9db#540#83e#c1#690#690#540#9db#67c#
(3839,a883) (94d,8849) #9204#7fdd#7055#8f8f#6df9#78ed#78ed#7055#7fdd#a762#
(8855,a25f) (94d,8849) #5f62#48d3#d1#975b#9f4#66d7#66d7#d1#48d3#6510#
(395,7c7) (bfb,10eb) #438#700#4f6#700#7bc#40e#358#57d#700#7f#
(9f7,cf5) (761,a01) #b2d#98a#f0#2db#c7#8bc#1a4#2db#311#
(6f1,845) (bfb,10eb) #463#71b#61c#71b#826#62e#695#694#71b#2fe#
(ecb,1811) (761,a01) #1086#180f#9fc#fde#3b6#14fc#14ae#fde#47e#
(2195,63f7) (761,a01) #2105#5f58#5da8#a5f#3eaf#4c20#2544#a5f#5d86#
(e5d,2941) (3bef,4b67) #1ded#69d#6f#cb5#1c81#26de#572#6f#af3#15b8#1c73#
(4373,454d) (53d,775) #47#6d7#26cd#2e27#2737#2875#2875#6d7#1445#
(947,e1b) (94d,8849) #23b#7e6#596#287#84f#98d#98d#596#7e6#1d5#
(1a79,278b) (761,a01) #18ae#1670#15f3#2488#2013#15ee#fae#2488#e0f#
(34d,4271) (94d,8849) #3fb9#29#1183#2054#915#239e#239e#1183#29#107a#
(2bb5,3695) (bfb,10eb) #85d#1c4d#2aa9#1c4d#1dc6#23ca#20ef#52b#1c4d#2b8d#
(55d9,9479) (3bef,4b67) #261c#d10#387c#488e#43f1#78dc#b51#387c#7da8#1f64#8e63#
(c2f,d09) (94d,8849) #3bf#168#599#6b1#984#35f#35f#599#168#1c1#
(7ed,20bf) (bfb,10eb) #1ebb#994#1812#994#17d3#1a35#6ec#1355#994#18fb#
(4c9,bd5) (94d,8849) #5ff#304#340#1b6#abc#414#414#340#304#675#
(6a7,10ff) (53d,775) #8cf#e7b#c99#d19#122#c4#c4#e7b#ec1#
(2731,2f6b) (3bef,4b67) #28#8ae#1f0#65#bc8#27e9#146a#1f0#2dae#2d4d#2547#
(35,3a0f) (94d,8849) #35d1#30a4#24a6#250c#1da6#19e5#19e5#24a6#30a4#38b1#
(42b9,58cd) (bfb,10eb) #3a64#2006#26d3#2006#1d2e#20e1#1b7e#330e#2006#4470#
(6f73,7a51) (53d,775) #6a9b#2270#32b5#5049#44c1#5ef5#5ef5#2270#6388#
(2323,5b55) (bfb,10eb) #2ad9#1138#4b3c#1138#3725#4c0#5667#40ea#1138#3885#
(2a1,ab7) (53d,775) #28#9c1#402#780#a47#a2b#a2b#9c1#8e5#
(55b,ed7) (bfb,10eb) #b5c#5b2#a17#5b2#198#f8#8e#8f#5b2#4b6#
(36f,5e9) (bfb,10eb) #366#279#1ed#279#42a#4f2#2d5#2fc#279#478#
(1db1,4d45) (761,a01) #11d9#3b5f#11d0#2307#31f#1a7#2c8a#2307#311e#
(a33,112f) (53d,775) #1af#e49#7d2#395#3f9#9fc#9fc#e49#5ed#
(4db9,6a7f) (bfb,10eb) #3c56#5b9f#5ffb#5b9f#1b53#4e3#4d9c#5c9c#5b9f#7a7#
(31,6f5) (bfb,10eb) #58a#347#19e#347#685#511#467#1f8#347#29#
(8083,9d37) (53d,775) #63c4#182d#1d22#11a9#744d#5266#5266#182d#57bc#
(26e9,7cb1) (761,a01) #2a8e#6c73#5fd7#2d02#631d#5c4e#54e0#2d02#942#
(2669,31a3) (3bef,4b67) #206f#2367#1e6#198e#1f6#753#4d9#1e6#1e1#25b6#627#
(7f9,3319) (761,a01) #218d#158a#70d#2061#15e6#c73#1583#2061#110f#
(1a9f,2f9f) (bfb,10eb) #1a68#8a5#1f8b#8a5#5d0#cd8#1073#2ca6#8a5#16e2#
(263,367) (bfb,10eb) #2d9#17b#13#17b#1dc#38#1fe#fb#17b#361#
(ea5,1e3b) (bfb,10eb) #1538#108e#a1f#108e#821#c3c#1418#766#108e#1763#
(67f,33e9) (bfb,10eb) #b6b#1ccd#1a8d#1ccd#b00#992#f70#1714#1ccd#de0#
(679,15f1) (761,a01) #fda#48a#329#1280#cfc#10cb#470#1280#29#
(d2b,11cf) (761,a01) #11ba#9ee#3c1#2d3#dd4#fea#583#2d3#b85#
(91d,1e3b) (53d,775) #1cc2#1b35#ce4#13b3#1389#1613#1613#1b35#e05#
(4f9,995) (bfb,10eb) #641#440#72b#440#436#71a#2f1#8e1#440#4d2#
(a4b,d15) (94d,8849) #4d4#2e#287#4d1#5e6#27b#27b#287#2e#4fe#
(559,6e3) (94d,8849) #4f6#3c1#369#396#2c#375#375#369#3c1#691#
(2041,d031) (53d,775) #3fbf#b4bb#83b9#837d#194d#b015#b015#b4bb#97b3#
(2bd,485) (94d,8849) #35#ae#451#162#311#482#482#451#ae#276#
(f95,360d) (53d,775) #eef#239d#1af1#64#870#1a2d#1a2d#239d#2f78#
(2219,231d) (bfb,10eb) #57b#195c#b0d#195c#285#54c#1cb#65#195c#477#
(2797,3613) (bfb,10eb) #2245#1df5#1f8e#1df5#a76#19af#2939#2cbd#1df5#1668#
(a3,9af) (94d,8849) #762#770#79a#f8#5cf#48d#48d#79a#770#2e8#
(2777,2fa1) (bfb,10eb) #fed#6e2#2efd#6e2#12c2#da0#d23#a49#6e2#b33#
(1cc9,59b9) (3bef,4b67) #1273#2cd#427#5600#4c71#273d#527f#427#49eb#3ed7#29f1#
(3159,459d) (94d,8849) #a00#dcd#93c#f81#2e5c#4159#4159#93c#dcd#45c#
(6ad,131b) (94d,8849) #26a#11d7#b0#af1#c38#365#365#b0#11d7#39#
(ba1,14f3) (94d,8849) #6da#321#bf4#108b#296#5ab#5ab#bf4#321#e53#
(20f,2a0b) (761,a01) #146c#f04#2944#2794#c1a#16f7#1ed9#2794#601#
(4b2f,7e8f) (53d,775) #f94#c6c#7afe#79eb#4327#ec9#ec9#c6c#b8a#
(2c95,39d3) (94d,8849) #1db6#3bd#132e#27d3#353d#1883#1883#132e#3bd#559#
(24a3,4f03) (53d,775) #188e#10e6#10e5#4d25#3fef#2ed4#2ed4#10e6#2a6b#
(536f,71f9) (761,a01) #2d1e#857#3be#3902#630d#3270#1d35#3902#6b7e#
(509,7f9) (3bef,4b67) #69b#207#254#2f6#125#1b2#2e5#254#59c#b2#7f2#
(551,a45) (53d,775) #28#64f#33#6b5#693#226#226#64f#9c9#
(89,263) (bfb,10eb) #1bb#184#f1#184#1f#d4#1d7#79#184#e3#
(187,3dd) (53d,775) #14c#128#71#1c7#2dc#35f#35f#128#26f#
(129,385) (bfb,10eb) #71#370#44#370#17d#f#58#373#370#290#
(32f3,4249) (94d,8849) #40d0#38a#3aed#193f#14ec#9d1#9d1#3aed#38a#b86#
(12e3,28f1) (bfb,10eb) #175e#156c#1e4e#156c#1658#1568#122e#f5f#156c#16b4#
(3583,4da7) (94d,8849) #2570#1dff#106a#40d4#4a53#f82#f82#106a#1dff#1495#
(f17,daa5) (bfb,10eb) #d465#4219#58c8#4219#9abd#213c#2293#c394#4219#438a#
(133,179) (94d,8849) #42#56#a9#9#3c#2b#2b#a9#56#150#
(c9,6af) (53d,775) #573#306#5cc#66e#3b2#61c#61c#306#420#
(4963,7c99) (bfb,10eb) #663a#6129#386a#6129#7558#3433#6217#181f#6129#4a7c#
(2a5,667) (3bef,4b67) #5da#4f3#29e#1cb#375#2c#5b2#29e#1a1#420#60a#
(b39,236f) (94d,8849) #b9c#10cb#ce7#2263#233c#a58#a58#ce7#10cb#2332#
(4b,3715) (53d,775) #1a08#2427#1e27#3371#34ac#2af6#2af6#2427#76c#
(75b,835) (3bef,4b67) #523#47e#204#68f#7ba#6ca#611#204#180#160#2d8#
(42d,53b) (761,a01) #411#e0#161#441#386#423#4c2#441#2a6#
(6521,7d6f) (3bef,4b67) #22e7#3b0a#251e#6be6#1bfe#30f8#110#251e#6089#6420#45c8#
(14a1,301f) (761,a01) #28b3#206c#21ef#20c7#ef3#25e4#1c3a#20c7#2120#
(73,b17) (53d,775) #a2e#ab9#1dc#17f#256#57f#57f#ab9#20c#
(4c4f,719b) (94d,8849) #1b30#1728#41a1#9c4#6376#3bd6#3bd6#41a1#1728#5d8b#
(3b89,7acf) (bfb,10eb) #76ef#fc4#2cf5#fc4#507e#7a4a#651b#6d02#fc4#6318#
(87,1b5b) (94d,8849) #e7e#113#16ed#d98#6d0#1940#1940#16ed#113#8b#
(14c9,339d) (53d,775) #2ada#94d#3e8#e14#2466#20a7#20a7#94d#335#
(d19,12a1) (3bef,4b67) #1251#11e5#d53#71e#b53#1149#c72#d53#9af#1032#717#
(6145,d5cb) (bfb,10eb) #4919#2ec6#d461#2ec6#b93c#645e#49e#3dc6#2ec6#bc56#
(337,535) (761,a01) #2f2#196#2a8#15e#434#4e#40b#15e#3b6#
(1db7,2707) (94d,8849) #1a17#117c#169a#1435#67c#24cb#24cb#169a#117c#11c5#
(e9,847) (53d,775) #35#28#4ec#77a#55a#2ba#2ba#28#360#
(173d,8083) (bfb,10eb) #3dba#458a#5b1e#458a#df5#4a67#598e#5fd5#458a#57d0#
(25a9,3f71) (761,a01) #a43#1680#4c0#2c4f#380c#1fd#3703#2c4f#39e0#
(297d,484d) (761,a01) #1f84#23ca#3d07#7#cbe#ac9#33ac#7#1e9f#
(773,845) (bfb,10eb) #789#392#801#392#566#3b8#147#69c#392#238#
(15d3,982d) (bfb,10eb) #93f#6eb#3f88#6eb#93ae#1b1b#1ff5#7800#6eb#39ef#
(3053,8653) (53d,775) #35d4#2be5#40fb#506b#66e7#64e7#64e7#2be5#60e7#
(3a3,c19) (94d,8849) #20f#934#2d5#31b#399#875#875#2d5#934#a40#
(151,39b) (bfb,10eb) #4f#1ce#3f#1ce#25b#176#30#65#1ce#29#
(323,10d3) (761,a01) #af3#590#9e#108d#e6f#c89#909#108d#5c6#
(3455,37c7) (94d,8849) #36be#2392#18e4#1882#336d#1f70#1f70#18e4#2392#219#
(2231,5161) (94d,8849) #1e15#867#4860#16cd#2c40#1933#1933#4860#867#779#
(1385,1601) (94d,8849) #497#53#c86#761#83c#60#60#c86#53#952#
(56b,14fb) (94d,8849) #1337#a13#3c2#3e2#120b#ea0#ea0#3c2#a13#1175#
(af7,38ab) (53d,775) #33c8#2fe9#13df#f3c#2a4a#d58#d58#2fe9#25d6#
(1037,6f2b) (bfb,10eb) #4294#47eb#4f59#47eb#1d83#39a4#33ca#953#47eb#6ce9#
(185,1c91) (761,a01) #141c#8de#517#35c#1c19#1c25#402#35c#b2f#
(c35,cdd) (761,a01) #5b8#7dd#aea#45d#3a6#8#18d#45d#ba9#
(a57,1e11) (761,a01) #1bb4#1d9c#6c3#c74#162d#b77#1606#c74#10ca#
(13d5,4a5f) (94d,8849) #306d#c4e#1e01#afb#3231#9c9#9c9#1e01#c4e#2051#
(521f,56f5) (3bef,4b67) #ed2#2feb#145d#525#4291#2ca7#2834#145d#4a1c#4a07#2ce2#
(70d,ec5) (bfb,10eb) #b44#27d#21f#27d#7a3#28d#19d#e9d#27d#d2d#
(96b,2ddd) (bfb,10eb) #d00#18a5#463#18a5#2390#24b8#26b#2719#18a5#904#
(6e11,a4bd) (bfb,10eb) #5549#5287#5f99#5287#3ef6#2221#3a2a#47e0#5287#58bc#
(91,781) (53d,775) #28#585#5fa#493#2c#59#59#585#689#
(1ceb,7915) (3bef,4b67) #1303#228e#399a#43ac#76d9#3ad8#9fd#399a#5cb1#4971#64f2#
(1053,2ac7) (3bef,4b67) #1767#1c4e#1fcb#15f2#15eb#2260#262c#1fcb#85c#1c58#24c5#
(2b19,5ec1) (3bef,4b67) #1431#57a0#5c8c#2230#1aeb#10c7#4ff5#5c8c#e6d#4f24#23b2#
(a51,2d47) (761,a01) #2a08#1f9f#c83#190e#17fd#16d#12c5#190e#671#
(179,1409) (3bef,4b67) #a4d#13c0#9a5#456#849#63#3b7#9a5#846#1077#11ce#
(1499,360d) (3bef,4b67) #12be#173c#13c2#3022#8af#a22#2375#13c2#35bb#2c98#2a70#
(f3,a03) (bfb,10eb) #9e8#548#72b#548#8ae#746#866#340#548#9c#
(725,1535) (761,a01) #245#941#14a1#98d#8e3#bd4#caf#98d#1eb#
(5e3f,6307) (3bef,4b67) #1ff7#19dc#3370#521#5539#2e52#130f#3370#62b2#3500#6135#
(2f9b,5405) (bfb,10eb) #302f#446f#38d4#446f#ff5#8d0#c1c#3f52#446f#3146#
(1143,4c3f) (3bef,4b67) #340e#fef#1268#342#1504#1687#413c#1268#3443#18e1#30ad#
(53,4df) (761,a01) #212#49b#3e1#1fd#48a#5a#1a#1fd#16d#
(25,19f9) (bfb,10eb) #8bc#114e#4bb#114e#4de#619#fad#65#114e#dc9#
(2c3,487) (bfb,10eb) #18b#2b6#128#2b6#485#2d#e#3ed#2b6#47e#
(44b,cf5) (bfb,10eb) #796#939#a9d#939#7b6#808#300#70a#939#2db#
(12b5,27cb) (bfb,10eb) #196a#4a3#85a#4a3#1dbf#256d#15a2#341#4a3#112b#
(185,19f1) (53d,775) #9dd#54f#783#f6d#638#1262#1262#54f#1470#
(227,7a5) (53d,775) #78c#f9#118#42#6ff#2d8#2d8#f9#709#
(5bd,2461) (53d,775) #234d#d1b#23a4#1e2a#1fb2#1325#1325#d1b#f28#
(459,168d) (94d,8849) #489#921#111e#7b0#146a#222#222#111e#921#f93#
(8bf,d4b) (761,a01) #75d#738#5ae#bd5#104#4d9#125#bd5#3af#
(653,2933) (bfb,10eb) #101c#e8a#170b#e8a#2457#1b64#26f4#673#e8a#2cc#
(4b17,6029) (53d,775) #197c#12cf#259b#25bc#3385#40bc#40bc#12cf#3472#
(28eb,73d3) (bfb,10eb) #1001#e3e#5ec7#e3e#31e2#22a7#2373#41d3#e3e#6fbe#
(43bf,6307) (94d,8849) #2a25#402f#17fd#2059#1a2a#2e2#2e2#17fd#402f#4274#
(83f,15eb) (bfb,10eb) #157d#13b7#11bc#13b7#177#f5e#1012#293#13b7#ce9#
(9a9,39d3) (761,a01) #22b7#1858#22b#3808#1f12#27be#bbb#3808#1a63#
(139,47b) (3bef,4b67) #121#1a5#81#40#1fa#399#21a#81#479#329#12b#
(14bd,544f) (94d,8849) #1032#acd#46d3#390a#5341#482f#482f#46d3#acd#3a51#
(4415,b5b1) (53d,775) #2f18#1bfb#b53f#1423#1502#5780#5780#1bfb#7bd0#
(197b,3365) (3bef,4b67) #23df#97c#2100#271b#18d5#28cd#2661#2100#2804#1bb#2814#
(61,2bf) (bfb,10eb) #146#a6#2b3#a6#193#c9#280#af#a6#12b#
(95b,2dfb) (94d,8849) #edb#9ef#22e9#7a9#b78#2ca8#2ca8#22e9#9ef#22d7#
(4da7,a99f) (3bef,4b67) #6e7#91ef#987f#2d63#a8c4#448d#5053#987f#9ef#3d03#a0c6#
(1175,128b) (53d,775) #d47#799#a4e#10f6#f8a#11f1#11f1#799#541#
(1d9,23fb) (bfb,10eb) #1424#17dc#1e9b#17dc#2163#f67#1a81#d3b#17dc#15ca#
(367d,4921) (94d,8849) #2456#3516#3985#23cf#c39#a2a#a2a#3985#3516#43e4#
(51,1a65) (761,a01) #173b#334#1644#1ca#1566#7a9#1313#1ca#9ad#
(2d1,bc5) (3bef,4b67) #b5c#a81#8c4#c#476#321#3bc#8c4#62e#559#a57#
(37db,5ee1) (bfb,10eb) #f80#5aa#2a1d#5aa#f44#5496#40aa#401d#5aa#3fc8#
(5f71,8e27) (94d,8849) #5a79#8124#23e9#3a76#68ab#630d#630d#23e9#8124#2578#
(497,845) (94d,8849) #3a8#3d9#11d#3e3#34b#788#788#11d#3d9#28f#
(6d55,9389) (bfb,10eb) #4a3a#4fa7#3890#4fa7#67d8#4c25#6bd5#8493#4fa7#6bfc#
(493,1811) (3bef,4b67) #1456#7e7#1735#17ac#66#17e5#165#1735#ac0#15f2#1783#
(1a7d,371f) (53d,775) #f55#1c57#348f#2d58#1940#284e#284e#1c57#30d#
(7b8f,a99f) (761,a01) #97b9#151c#5127#701e#9c20#6ace#941#701e#144a#
(957,1705) (761,a01) #4f7#13ee#dcd#11c6#342#1cc#145f#11c6#aa1#
(18e7,41c5) (761,a01) #3b56#1be3#e6f#1ef6#47c#3318#1dbb#1ef6#2ada#
(3fd,499) (53d,775) #c2#9#167#2f8#29f#478#478#9#428#
(1f87,48d3) (761,a01) #1a01#17bf#466f#2d71#1e77#3cfd#19a#2d71#2207#
(4969,4b67) (94d,8849) #a34#29b5#3bca#4067#1327#2a53#2a53#3bca#29b5#118b#
(399,7b1) (761,a01) #12#48e#758#62a#76f#3e7#4c9#62a#239#
(3a9,601) (94d,8849) #5bf#39#4f7#55c#347#31e#31e#4f7#39#29#
(44d5,5a8f) (94d,8849) #26ed#3d7c#3e42#2d7#2e21#96b#96b#3e42#3d7c#5a3c#
(a661,e0ff) (94d,8849) #75c6#d038#7ce7#443f#1a88#80c#80c#7ce7#d038#d583#
(20eb,2a79) (53d,775) #15de#19d3#574#d67#12d1#1d46#1d46#19d3#12e7#
(437,a15) (3bef,4b67) #9ed#617#9b3#8e5#6f7#50a#700#9b3#8d2#9de#303#
(df,3739) (53d,775) #1feb#49d#6c4#15#15cb#133c#133c#49d#165e#
(4507,71d7) (94d,8849) #546b#5c2d#22fd#5786#71a2#3059#3059#22fd#5c2d#46cb#
(53d,775) (bfb,10eb) #4a8#57f#412#57f#52a#178#4e6#742#57f#442#
(861,9eb9) (3bef,4b67) #6d96#2498#2837#2ac#786#277e#66c1#2837#95b9#b5c#8751#
(337f,50dd) (3bef,4b67) #23e#48c7#1b5b#dc6#909#4eaa#1bac#1b5b#ad1#fcb#28b9#
(ce9,126d) (761,a01) #e52#836#4c4#ee2#e96#e61#443#ee2#dd1#
(8db,be3) (bfb,10eb) #33c#136#908#136#481#49e#238#b6b#136#564#
(24f5,4d7d) (bfb,10eb) #33ff#3a0e#2c60#3a0e#3282#2474#2f47#1d94#3a0e#3ac9#
(6d1,17ab) (53d,775) #70#13f1#3e8#145a#144a#96#96#13f1#9eb#
(1a9f,7d6f) (94d,8849) #65c9#7623#74b1#5655#31f3#92f#92f#74b1#7623#59b4#
(1e1,4793) (53d,775) #b84#81e#3860#3003#161f#1573#1573#81e#1861#
(5b,1c3) (761,a01) #28#197#4c#73#18c#98#10c#73#29#
(5911,d3ed) (bfb,10eb) #b93f#73dc#5571#73dc#17b9#1bf5#88c7#73ca#73dc#1f21#
(74c3,b7eb) (761,a01) #5ecf#4703#5c8e#15bd#8a58#91d2#b009#15bd#6433#
(3bef,4b67) (3bef,4b67) #1894#40de#1354#27c0#1de8#b00#330b#1354#2293#2b14#1988#
(3b0f,58cd) (53d,775) #540d#10ea#3e87#40ad#29c6#61#61#10ea#4691#
(493,6b5) (94d,8849) #687#225#100#2c2#168#539#539#100#225#4f8#
(1391,2117) (94d,8849) #5ea#166f#1e62#11a#1d3b#13a4#13a4#1e62#166f#198c#
(15a5,1747) (761,a01) #132f#cea#16d9#4a3#f8f#147#648#4a3#158#
(1383,1b13) (3bef,4b67) #89a#1263#982#1152#cb3#185e#594#982#a7c#176b#8ad#
(959,43f7) (94d,8849) #3055#3bd6#3b9e#3ab9#3b23#2298#2298#3b9e#3bd6#4397#
(144b,1f73) (bfb,10eb) #1584#1416#12fc#1416#338#2c#19f9#1248#1416#1ed8#
(40d3,52d9) (53d,775) #4757#1a0d#361d#4ac1#4a0e#2242#2242#1a0d#4eb1#
(813d,867b) (3bef,4b67) #786c#7f83#5fb9#6d7f#20db#1b5e#80fe#5fb9#4d63#59bd#d33#
(16f,1235) (3bef,4b67) #45d#b2c#31f#5ce#959#198#c62#31f#69e#b04#d8c#
(58f1,8659) (761,a01) #48cb#284c#6e52#4078#4906#7d43#4612#4078#34d6#
(21b3,24ad) (bfb,10eb) #1d25#2294#e98#2294#111#1d3a#13c2#24a#2294#159f#
(2e3,12fb) (94d,8849) #19a#1004#369#8cb#a15#b5a#b5a#369#1004#aef#
(55d,ef3) (53d,775) #ee1#94e#8c4#2fa#c44#72b#72b#94e#910#
(3aab,7de7) (bfb,10eb) #3e84#5dc7#60f4#5dc7#4d73#689a#10d1#5e9c#5dc7#111e#
(94f,a07) (bfb,10eb) #168#3de#187#3de#6c1#624#8e0#85d#3de#214#
(443,57b) (53d,775) #205#321#3be#45d#bd#498#498#321#1d4#
(7f3,c43) (53d,775) #239#b02#32d#873#159#7ea#7ea#b02#502#
(2d7,2579) (761,a01) #12a6#1430#1a9#5d9#ee2#129c#46e#5d9#f33#
(775,817) (94d,8849) #29b#5f0#294#3f4#454#544#544#294#5f0#29#
(13f9,17e7) (94d,8849) #122e#7b3#1718#780#117c#75a#75a#1718#7b3#338#
(197,13c7) (761,a01) #cfb#10d1#d84#1024#5b6#ecb#1f6#1024#fb1#
(91,605) (53d,775) #4ce#252#379#304#1c#425#425#252#389#
(1e83,2293) (3bef,4b67) #ff8#fd#2c6#1e4c#dee#ef2#1764#2c6#598#1382#12f8#
(2d93,3451) (761,a01) #26f5#c21#2e3#20ca#1876#f0d#341b#20ca#31a1#
(37d,47b) (bfb,10eb) #187#14f#1e4#14f#337#3ee#471#211#14f#425#
(f07,31fd) (3bef,4b67) #268f#3160#1512#4c1#7de#11fe#1320#1512#2e51#2b6b#3b6#
(fb,7c7) (761,a01) #53a#630#1ac#2a4#5f9#455#2a3#2a4#525#
(9d,1043) (761,a01) #1db#a44#cc4#e55#11b#9b0#24f#e55#fa6#
(4d81,533f) (53d,775) #3c37#b14#23f9#4768#47fa#26f4#26f4#b14#3f49#
(92bb,e473) (3bef,4b67) #875#54ad#25fb#c3be#6296#725#29f0#25fb#60#5d18#3b83#
(2993,31fd) (53d,775) #5ba#1c49#2579#19fa#1795#203b#203b#1c49#19a0#
(10a3,2371) (3bef,4b67) #84a#21f0#1e33#32c#e87#83c#214c#1e33#1e21#ebf#21ce#
(b9d,6637) (bfb,10eb) #27f3#36a7#62fe#36a7#28c5#10d7#1991#3917#36a7#218e#
(5ef,a2b) (761,a01) #321#1eb#74b#86e#984#2c2#f1#86e#32c#
(334d,3f47) (bfb,10eb) #1fde#c3#24d6#c3#b77#976#1356#33be#c3#232c#
(5bc9,ab9b) (53d,775) #8aa9#5001#9eb7#4abc#2eb7#8eef#8eef#5001#39e#
(25a5,2f5f) (bfb,10eb) #564#40c#1a4f#40c#aa4#31#30#f50#40c#19cf#
(5db,f89) (bfb,10eb) #199#8b8#23c#8b8#5df#d6f#2dc#13b#8b8#70c#
(207d,3df1) (94d,8849) #df1#3765#322b#2188#20fb#2693#2693#322b#3765#2d9d#
(b69,3c25) (94d,8849) #1a8#3ff#177f#27db#1761#444#444#177f#3ff#309e#
(24b,2749) (53d,775) #e4a#1fe8#2451#10ac#1278#2182#2182#1fe8#7c#
(2ff9,6a7f) (53d,775) #1a16#2255#64e2#2b34#38c2#19ea#19ea#2255#3b07#
(2fb,87b) (761,a01) #7c6#5c0#22d#205#37c#74a#4cf#205#85f#
(b3,d1) (53d,775) #a2#47#29#17#bb#42#42#47#33#
(1421,23cf) (761,a01) #df9#1998#1fc#474#1cd7#20#16b0#474#c6d#
(2839,2d83) (bfb,10eb) #299e#433#34d#433#2a47#9ac#d4b#f68#433#efa#
(2e49,8e97) (3bef,4b67) #1265#7399#2221#39dd#26e#650c#2f0b#2221#3992#849c#7d5e#
(71,bb) (53d,775) #6#46#11#64#2c#37#37#46#18#
(3e7f,41c5) (bfb,10eb) #4195#130a#127d#130a#47c#12a6#35b2#3bcd#130a#23db#
(345,102d) (bfb,10eb) #e40#28c#195#28c#a1#b22#1cf#c3b#28c#5c4#
(d91,3937) (3bef,4b67) #2087#946#2d18#371c#fdc#21fa#2d44#2d18#29aa#ac6#2ccb#
(e69,2c3f) (94d,8849) #24bd#60c#1055#17e7#148a#25f6#25f6#1055#60c#2076#
(1c5,1cdb) (761,a01) #b7#3b1#2ab#ad#119b#3fa#7e7#ad#5a8#
(97,56b) (94d,8849) #29c#1c8#17e#4be#49e#5e#5e#17e#1c8#3b1#
(55ed,aca5) (94d,8849) #76d0#5182#67a4#130f#94f7#a27c#a27c#67a4#5182#8e#
(3701,6f01) (94d,8849) #561#47cb#5ee3#63ed#7d4#4dfe#4dfe#5ee3#47cb#25ff#
(e9,227) (94d,8849) #30#39#119#4#1d8#12#12#119#39#46#
(55f3,67b5) (3bef,4b67) #18d1#1eab#6744#44dd#55ac#31fa#2ff4#6744#1883#121f#58f2#
(af1f,bb57) (94d,8849) #3672#8685#8246#3fa#1cbc#1b8b#1b8b#8246#8685#a959#
(56d7,773b) (bfb,10eb) #3d90#5b78#5246#5b78#1421#5294#b3#694c#5b78#5392#
(7b85,8cf9) (94d,8849) #69a7#7d4#2d04#1a2e#62#528f#528f#2d04#7d4#18c9#
(287,1001) (53d,775) #53c#68b#583#59c#346#abe#abe#68b#78d#
(40ad,5743) (761,a01) #1167#4723#21f5#541d#11f4#29df#1255#541d#392#
(24d1,34d9) (3bef,4b67) #275#1daa#3089#1549#2c45#a05#5e5#3089#2621#1d6c#1572#
(781f,a99f) (761,a01) #af1#3238#74e3#8393#16b9#626d#2b54#8393#70ea#
(339d,4ff3) (53d,775) #1ed7#f26#3a99#2c97#350e#15b5#15b5#f26#3457#
(62f,2e7b) (94d,8849) #1867#2417#230c#1eb1#1369#1936#1936#230c#2417#234c#
(57b,19f9) (3bef,4b67) #1421#855#be2#18b#240#850#d07#be2#440#110a#966#
(2b3d,31e5) (bfb,10eb) #15ad#1ba8#b6d#1ba8#bf1#2194#1afe#2bc3#1ba8#1806#
(365,5b1) (761,a01) #36b#244#360#31a#c6#e1#3ad#31a#5ae#
(2023,411d) (761,a01) #3e10#211#29e8#2f64#2df8#478#4be#2f64#23dd#
(1ff,53f) (bfb,10eb) #69#4#66#4#1b5#19#192#3a6#4#148#
(57b3,a71d) (53d,775) #2541#530b#4d3#9a15#4fbd#58e7#58e7#530b#9c47#
(179,383) (761,a01) #171#12c#316#254#208#176#2f5#254#372#
(6d1,afd) (761,a01) #5a0#270#9d6#a1c#164#8b7#1f#a1c#d7#
(48f,2551) (761,a01) #5c3#1059#ea4#1018#d59#113f#1eb1#1018#154d#
(2d71,3f97) (94d,8849) #3b15#1818#1222#1610#1497#16d7#16d7#1222#1818#359a#
(814d,8fff) (3bef,4b67) #643b#3b42#290c#3b04#63b1#6fbc#4ff9#290c#7769#9d9#ab4#
(9e33,ec4b) (bfb,10eb) #ab50#7153#70e1#7153#a905#312f#40fa#92c0#7153#2f41#
(7d3,e0f) (bfb,10eb) #55b#d13#371#d13#b69#a66#734#5a#d13#2ba#
(11bb,24a3) (53d,775) #1d4c#1211#16fd#b9e#76f#1811#1811#1211#7d3#
(5d5,1c91) (53d,775) #1ba6#10ab#d72#19cd#aa9#146#146#10ab#15c9#
(67f,9973) (53d,775) #4fec#1aa7#831f#35c1#5538#65ce#65ce#1aa7#4314#
(40d,53f) (53d,775) #c2#1a7#4a6#354#49b#1f1#1f1#1a7#181#
(1433,1a65) (94d,8849) #d78#a4e#124d#1114#19df#7ac#7ac#124d#a4e#d8c#
(4ad,1927) (53d,775) #1255#298#267#64#145e#385#385#298#172#
(16df,2d47) (53d,775) #40#276c#18fd#75a#2781#1222#1222#276c#2371#
(359,1cab) (761,a01) #385#db#12b2#201#1b14#d6e#144b#201#1ec#
(1403,2621) (94d,8849) #1b6f#282#b03#14a6#1bb8#1330#1330#b03#282#7a4#
(4a3,404b) (bfb,10eb) #165#20bf#3632#20bf#8bd#1e27#23a#bc3#20bf#3dd#
(df,e53) (3bef,4b67) #16c#1c4#3fd#de5#35e#9c#145#3fd#c3#10#51a#
(182f,1e67) (94d,8849) #16e7#827#10d6#bd9#aec#1a2#1a2#10d6#827#744#
(1225,1415) (bfb,10eb) #1317#f8a#b7b#f8a#48a#b7#10b7#2a3#f8a#1410#
(1171,5b55) (53d,775) #e2a#2a1e#3d6b#97e#122#51ca#51ca#2a1e#3e08#
(341b,40bb) (bfb,10eb) #1554#39ca#a6#39ca#174e#10a2#ea4#3492#39ca#20ab#
(9827,d987) (3bef,4b67) #5827#86f4#485#255e#60ef#b07d#cc91#485#8d5#53d8#32d1#
(fb3,4b5b) (53d,775) #3c80#30d2#320f#3021#31f4#49fc#49fc#30d2#428d#
(2a1,5bd) (761,a01) #28#37#36#31#2c#61#30#31#29#
(2b3,3785) (94d,8849) #bff#1756#1620#1337#347d#20dd#20dd#1620#1756#32ad#
(157f,278b) (3bef,4b67) #1ac0#152#1762#1e48#163f#228f#20b5#1762#24a6#1401#1134#
(32f,288b) (bfb,10eb) #287a#27ca#3a3#27ca#263a#a3d#1351#9c2#27ca#1127#
(1217,2e7b) (94d,8849) #85#2ca0#11d#2341#1144#14ef#14ef#11d#2ca0#1fee#
(5a1,763) (53d,775) #28#35#33#64#2c#37#37#35#29#
(3dab,5831) (3bef,4b67) #604#1f5b#2fe0#52a2#2a6b#3b28#27f3#2fe0#1e5e#4c3f#1d45#
(1d7d,2039) (3bef,4b67) #840#a11#1674#e1a#f59#196e#1809#1674#123a#db2#71d#
(25e5,471b) (bfb,10eb) #431c#2419#3074#2419#1992#3e5a#1caa#1278#2419#22e2#
(263,919) (3bef,4b67) #654#4a6#785#791#253#762#6d8#785#315#84#22e#
(166d,50cf) (bfb,10eb) #38f0#506a#3873#506a#6ce#1f2#3b08#e93#506a#30d#
(c4d,1555) (53d,775) #a22#a77#fe5#c96#10f8#94f#94f#a77#29a#
(4bd,2339) (761,a01) #139b#4e1#2222#2050#2283#21c2#829#2050#11e7#
(161,637) (3bef,4b67) #3a#3df#14f#280#5cb#45f#493#14f#341#a3#494#
(45b,e53) (bfb,10eb) #21e#b55#46c#b55#542#c92#b11#224#b55#967#
(279,28c9) (53d,775) #aac#c37#1738#eaf#6e2#1f06#1f06#c37#270c#
(207,8b3) (53d,775) #371#889#3a7#338#18c#51#51#889#5b1#
(16bb,2437) (bfb,10eb) #1e90#9e#103#9e#c64#1e3d#2076#d3b#9e#1c39#
(1631,2357) (53d,775) #7e5#79f#2308#1a83#1ac6#6bf#6bf#79f#22e2#
(905,e41) (3bef,4b67) #d4a#28c#15a#c78#99e#c29#bf7#15a#d1b#d14#802#
(fd1,2621) (761,a01) #1289#2266#978#121d#638#2483#5fe#121d#81b#
(3df1,7a0b) (53d,775) #421b#6dcd#cce#1326#52fe#4124#4124#6dcd#53a3#
(17b7,203b) (bfb,10eb) #19fb#1b1d#67a#1b1d#7b#3be#505#5d3#1b1d#89c#
(28f3,2a37) (53d,775) #29d5#5c9#5d#1ad3#28c3#2786#2786#5c9#1b00#
(1ba1,2591) (3bef,4b67) #bab#443#1d4f#18a4#18dd#1852#1aeb#1d4f#1986#a87#1600#
(1f97,31a3) (3bef,4b67) #a8e#f0a#221b#b46#25f3#1f1d#d82#221b#f31#966#2881#
(63a3,b7eb) (bfb,10eb) #2da3#7428#4ed#7428#3422#9347#57ad#6a57#7428#7ce8#
(1499,15f1) (761,a01) #f88#103b#25b#51e#133b#122f#567#51e#29#
(fc5,8083) (94d,8849) #3ef3#1db9#5a24#3e7d#37be#1e76#1e76#5a24#1db9#1ca4#
(6b,9c5) (53d,775) #4a4#526#88d#902#5b6#87a#87a#526#572#
(43d,9af) (53d,775) #7a0#781#1b4#563#58a#6df#6df#781#955#
(6d5,a03) (3bef,4b67) #399#6a6#779#279#2fb#5a1#474#779#322#8fb#49#
(509,105b) (bfb,10eb) #3e0#d06#5c5#d06#646#1054#6d#565#d06#da2#
(4af,b53) (94d,8849) #5f2#251#b6#3c5#a23#31#31#b6#251#84e#
(ce5,294d) (53d,775) #20bb#233f#9be#1d4c#916#6b0#6b0#233f#20f2#
(8b7,ee3) (53d,775) #528#7fa#d9e#7b3#c59#6a4#6a4#7fa#d5#
(10b,205) (3bef,4b67) #1ba#b2#83#194#123#1ce#1be#83#107#181#192#
(a31,1cc7) (3bef,4b67) #6f2#1699#1c80#1b32#769#ffe#4c2#1c80#1165#2d#19cc#
(54c1,9389) (3bef,4b67) #7562#2043#7cf1#147a#27ab#7be8#55e9#7cf1#52d1#2582#2b7b#
(1b,661) (53d,775) #28b#41a#2a6#134#84#116#116#41a#48a#
(114d,2ef1) (3bef,4b67) #78b#65e#2e93#2554#25a9#15e2#1b#2e93#3b#12e5#18cb#
(5b,d1) (bfb,10eb) #28#62#66#62#2c#31#30#65#62#29#
(1c63,71f9) (53d,775) #56be#311#3877#379c#6f1a#746#746#311#4070#
(4a3,5ed) (3bef,4b67) #400#5ab#545#17d#176#41c#27a#545#18#479#11f#
(121,1b5) (53d,775) #10c#81#cb#15b#149#18d#18d#81#146#
(71c9,9179) (761,a01) #1c98#496b#5714#4cb#1559#283f#5b2f#4cb#7a25#
(23b,2c9) (761,a01) #e2#b3#12e#202#21c#dd#109#202#276#
(1e33,242b) (53d,775) #1a60#138e#8b3#220f#2324#1f09#1f09#138e#e3a#
(3a3d,4567) (53d,775) #1588#199e#116a#3a5#439b#2cc8#2cc8#199e#4485#
(4369,8b25) (761,a01) #5ec#6a0b#3ea8#43e7#3c88#2e49#1db3#43e7#2d9b#
(174b,1fdf) (94d,8849) #1d25#1ea1#aea#10a4#d14#82#82#aea#1ea1#94a#
(14d,4b7) (53d,775) #6d#1c9#3fc#2bb#3cf#29b#29b#1c9#3b2#
(3d1,10d5) (53d,775) #668#918#51#c26#92d#de3#de3#918#144#
(dfb,2833) (bfb,10eb) #5ec#f9b#199e#f9b#24f1#e13#111d#144a#f9b#130f#
(5d1,ac7) (3bef,4b67) #587#4a3#369#be#948#490#e6#369#a28#8e8#984#
(46f3,522d) (53d,775) #eda#26e7#850#12db#42c7#e43#e43#26e7#512a#
(919,b69) (761,a01) #a0d#a42#445#704#893#1dd#1d9#704#81c#
(135d,3df1) (bfb,10eb) #1e18#1ae#3152#1ae#18b2#c36#1eb4#2a9c#1ae#1aad#
(3851,44f5) (761,a01) #30d1#5ad#c6c#39a6#35e5#3be5#40e8#39a6#374f#
(1b4d,36a3) (94d,8849) #26de#5d8#535#1cde#6eb#1fbd#1fbd#535#5d8#e47#
(b45,d45) (bfb,10eb) #2c9#781#79f#781#bc3#d0#3d0#b2e#781#cc2#
(c4cd,db59) (53d,775) #32fe#4835#85d3#2129#b747#a7#a7#4835#ba3d#
(192d,1d93) (761,a01) #1895#b65#6f5#1693#19df#44e#107f#1693#644#
(cd9,15f1) (761,a01) #fda#48a#a1e#ec1#cfc#1513#b1#ec1#29#
(eed,15a7) (53d,775) #5ce#137d#7ad#3fa#196#37a#37a#137d#66e#
(2831,2f69) (bfb,10eb) #27e5#6bf#2a46#6bf#2c3d#325#276a#1b33#6bf#249#
(3fb,7cb1) (761,a01) #5fb3#49d5#4571#5b91#34df#6d44#d4d#5b91#6e48#
(95b,b6b) (94d,8849) #8af#951#9ea#26a#688#702#702#9ea#951#9d8#
(17f,1907) (761,a01) #e02#930#1859#1273#765#1884#e0d#1273#a4#
(b9a1,d795) (761,a01) #8303#d4f9#a4f5#7038#3f3f#3246#6c7#7038#17b2#
(3a81,4b8b) (94d,8849) #1630#17b0#238e#1944#258e#290f#290f#238e#17b0#22f5#
(2d5b,409f) (3bef,4b67) #2192#33f4#8ec#512#2e4e#10df#365a#8ec#2635#2e39#2c4c#
(34f1,42d7) (94d,8849) #b65#7b3#1fb4#61d#35d5#bd0#bd0#1fb4#7b3#184a#
(71,dd) (94d,8849) #28#39#34#b9#2c#c0#c0#34#39#3a#
(1ab,487) (53d,775) #cc#33e#244#a8#da#3ce#3ce#33e#404#
(9c5,b9c9) (94d,8849) #1f72#a68d#37c1#9748#5dbe#6961#6961#37c1#a68d#8868#
(1f3,13cd) (761,a01) #81c#25d#58d#c2d#5c5#904#133#c2d#811#
(8baf,9d37) (761,a01) #e19#8cda#156d#a20#5174#87e2#32d1#a20#91bc#
(1159,2371) (53d,775) #2104#22c2#e49#a48#1e93#2202#2202#22c2#1b6c#
(b99,13bd) (53d,775) #17b#129f#869#df6#f8c#e9e#e9e#129f#e47#
(5,5e9) (761,a01) #3e4#37#1d7#310#2c4#184#258#310#17#
(24bf,4469) (bfb,10eb) #435c#1f47#1e06#1f47#616#378d#4318#440b#1f47#2778#
(a45,bb1) (3bef,4b67) #667#382#584#996#94c#b85#8ec#584#757#a32#29#
(3b3,545) (761,a01) #59#4b3#10e#40#3a8#33#3b9#40#6e#
(c5,155) (3bef,4b67) #5a#70#57#8c#d6#37#11#57#107#b0#8a#
(564b,62c3) (53d,775) #352c#325b#356#2d9b#3de5#48d#48d#325b#52c9#
(8d1,12fb) (761,a01) #99#197#12b5#1051#2c#193#5ed#1051#8c7#
(1631,1f73) (761,a01) #5a0#198d#f24#e47#1881#a3b#4ab#e47#d7#
(e09,1def) (bfb,10eb) #187a#1baa#117f#1baa#e86#d01#1beb#192d#1baa#1672#
(50b,3875) (761,a01) #e8f#ffe#1cb4#1394#247f#2dd9#20#1394#153f#
(b4d,1d2f) (94d,8849) #a74#35f#55f#1892#fb5#301#301#55f#35f#3f4#
(211,2579) (3bef,4b67) #24f7#959#1f9b#1881#94#a67#1ea3#1f9b#87e#b5b#f72#
(f67,128b) (94d,8849) #316#437#eea#102c#4dc#476#476#eea#437#810#
(4111,73d3) (53d,775) #3f37#435d#570d#4b10#39cb#723d#723d#435d#62e0#
(13cd,1963) (53d,775) #6dc#10f4#18c3#6a2#1003#717#717#10f4#13a3#
(3b03,5fb7) (bfb,10eb) #3bd8#2243#3326#2243#4bc5#48b3#3ed5#2b24#2243#5df3#
(1403,20bf) (bfb,10eb) #15e5#1acc#1c69#1acc#348#920#15b1#2c3#1acc#170e#
(22f7,7de7) (bfb,10eb) #65fb#e89#79ef#e89#3bc9#4eea#1fae#7b92#e89#3cef#
(40f7,8113) (53d,775) #7572#46af#524d#3751#41ef#7191#7191#46af#726d#
(1759,1dad) (bfb,10eb) #598#242#fc3#242#1c87#310#25#15cf#242#1b48#
(81b,a15) (94d,8849) #959#674#158#763#9b4#5ca#5ca#158#674#78b#
(710b,8875) (bfb,10eb) #4024#4425#3391#4425#148f#77ae#7ca0#eb2#4425#2ef7#
(961,11cf) (94d,8849) #1ac#a74#b31#c5#119a#3a1#3a1#b31#a74#1197#
(d1,1b01) (761,a01) #f87#186d#1b#1699#16d0#111b#16b0#1699#380#
(71b,1249) (53d,775) #104e#695#1f9#117e#fd3#147#147#695#cc#
(133f,1ae7) (94d,8849) #b6b#1956#262#c4c#d46#93d#93d#262#1956#a16#
(2d81,49b7) (3bef,4b67) #410b#360d#144#2e4d#26cd#47ae#29b2#144#269d#3cb0#3838#
(25f,791) (53d,775) #34e#42b#5fd#537#765#336#336#42b#184#
(f8b,8713) (94d,8849) #4915#4549#38d3#311a#3318#506e#506e#38d3#4549#78b9#
(11d5,27df) (94d,8849) #e71#dee#2614#f76#2021#2244#2244#2614#dee#c77#
(629,e1b) (3bef,4b67) #b8e#c70#d55#5d0#f1#9f1#93#d55#9a3#c8d#dcc#
(47,20f) (3bef,4b67) #e#ff#f2#65#1fe#9e#1dd#f2#93#a6#10b#
(1c3,365) (bfb,10eb) #222#272#66#272#155#2f1#122#12b#272#15d#
(8d,fd) (53d,775) #cd#56#e3#b1#c6#4d#4d#56#76#
(1cd,5bd) (53d,775) #1a1#368#45d#57f#198#4cf#4cf#368#201#
(28d,9d7) (53d,775) #3fa#56e#9d2#7b2#7fe#415#415#56e#5a#
(2531,3b93) (53d,775) #1125#2441#51e#3b2d#483#1182#1182#2441#ec2#
(620b,a8fb) (bfb,10eb) #99ef#74df#60bc#74df#7f10#6c5e#1292#8837#74df#89fb#
(239,37d) (53d,775) #13d#1dd#1b0#2c8#1f3#d7#d7#1dd#25c#
(3e87,8549) (761,a01) #77d8#5743#3a23#854#7fe0#2c13#232e#854#25b5#
(3d,f35) (bfb,10eb) #d1c#23e#ac2#23e#3be#c6d#281#3ea#23e#c6#
(cd7f,d1ef) (3bef,4b67) #8362#bd5c#9424#5958#7819#cbb#4133#9424#ca16#8be2#c97b#
(3f7d,60dd) (53d,775) #4e83#20f9#1311#1dd3#20d1#24b6#24b6#20f9#4928#
(7415,82db) (3bef,4b67) #7071#5191#66f4#7847#19f7#47d8#d3c#66f4#1556#31a0#27d9#
(8af,105d) (3bef,4b67) #75c#2e0#1bd#e55#21#2fa#279#1bd#23d#a18#f9f#
(2503,2677) (761,a01) #a81#e04#fc2#2377#1908#1b03#d9e#2377#6e7#
(70db,9179) (761,a01) #433b#2351#4925#4995#2299#3c68#59ec#4995#51f#
(11ab,236f) (53d,775) #967#1cce#188f#14ba#1e15#115e#115e#1cce#268#
(a01,23b7) (94d,8849) #1d77#1891#554#250#22ed#3be#3be#554#1891#11f#
(64ff,7c57) (53d,775) #57b1#6c23#b80#65ca#5537#3b9f#3b9f#6c23#1f2#
(14b1,5153) (bfb,10eb) #d71#1e03#22c7#1e03#e62#1122#1ef1#fea#1e03#4780#
(42d,66b) (53d,775) #359#350#47#23c#471#8d#8d#350#4ea#
(6f7,ab7) (bfb,10eb) #38f#992#1c#992#21d#1c4#bf#400#992#838#
(d13,28a3) (3bef,4b67) #ee1#82f#29b#9dd#66#b9a#1530#29b#2ad#1a0#bfd#
(f07,1c03) (53d,775) #db2#1684#1aba#15b2#16a6#13c6#13c6#1684#1838#
(743,9b3) (94d,8849) #90#92c#104#628#2c6#4dd#4dd#104#92c#92b#
(1875,1e31) (761,a01) #a0e#5eb#cd9#d02#1467#2d1#1b43#d02#13b2#
(911,1f2b) (3bef,4b67) #28c#9da#4ce#8ae#979#2ef#1911#4ce#1c1c#124c#1448#
(1e7,21a3) (bfb,10eb) #4f4#d3e#66#d3e#1da2#18e3#13c6#8#d3e#ebe#
(6399,8083) (3bef,4b67) #3186#71ad#75eb#7f23#ee9#fe1#4d3f#75eb#4410#501e#1612#
(5413,7d6f) (94d,8849) #1157#5f3a#60d3#edc#f3#348d#348d#60d3#5f3a#7b04#
(234d,242f) (94d,8849) #1885#22d0#23f6#299#1eb4#16cc#16cc#23f6#22d0#1e06#
(3233,3fdf) (94d,8849) #3d86#3561#21d0#1927#570#2910#2910#21d0#3561#18e1#
(2db3,3875) (53d,775) #2326#640#d6#253b#2f8e#2e67#2e67#640#1ad8#
(683,114d) (bfb,10eb) #11b#1d#66#1d#bee#732#d0d#87e#1d#109f#
(cdb,2293) (3bef,4b67) #15e3#bb7#d9#18a0#101f#14f9#52c#d9#165d#ea#a97#
(a31,fc1) (3bef,4b67) #269#59b#e88#68c#513#f87#b41#e88#58b#ee5#80f#
(1457,396d) (761,a01) #ea6#154#382b#2929#252a#637#2a78#2929#178e#
(a21,471b) (53d,775) #2b6#2fe5#2f09#3b26#68f#3d1a#3d1a#2fe5#39a4#
(597b,5b55) (761,a01) #11a4#2333#45a0#11af#3b98#3d96#e4a#11af#3b9d#
(e5,d031) (bfb,10eb) #346c#4e76#84e3#4e76#18aa#3c0#4c2f#247f#4e76#8bc2#
(6733,88c3) (bfb,10eb) #698f#1d21#4a71#1d21#b7f#2ce#2a00#ad9#1d21#441b#
(293,12d3) (53d,775) #1145#b96#bb3#61#15c#730#730#b96#c2a#
(213d,33af) (bfb,10eb) #c43#866#1941#866#1bc5#290c#189c#194#866#2600#
(383,ad3) (94d,8849) #17b#9ea#67#b3#113#759#759#67#9ea#ad0#
(3c4f,5a59) (94d,8849) #3423#266c#2747#28a2#3dca#4998#4998#2747#266c#3b73#
(132b,174b) (bfb,10eb) #994#7f6#9b9#7f6#1e9#e69#303#bf7#7f6#28d#
(214b,4b5b) (94d,8849) #3510#152e#127e#3805#2cb5#2da6#2da6#127e#152e#3d53#
(7ab,3937) (94d,8849) #2cdf#1878#206c#35cc#15b8#1d26#1d26#206c#1878#1cd3#
(a3d,ba1) (53d,775) #6e9#a50#1d3#a1e#aa2#9f0#9f0#a50#686#
(1d,383) (53d,775) #45#18#8a#47#1fc#54#54#18#2a7#
(5ef,9e5) (3bef,4b67) #135#6f9#257#54f#6e8#193#991#257#215#73#522#
(b39,1963) (3bef,4b67) #ca8#ddb#c3#180a#6c1#b1d#4a0#c3#be#1930#6bb#
(14a1,9485) (761,a01) #3863#4897#51a2#47d0#355b#1c46#531e#47d0#b26#
(2d5,1823) (3bef,4b67) #f24#77c#2f3#1060#1da#c0b#5b5#2f3#f0d#601#ef8#
(349,1249) (3bef,4b67) #fe6#204#b67#a72#408#a58#72#b67#112a#835#276#
(239,4ed) (94d,8849) #452#fc#75#12e#e2#17#17#75#fc#290#
(2027,7757) (53d,775) #6d9b#29ca#ec6#4976#15fa#f9a#f9a#29ca#15e7#
(553,2bdb) (3bef,4b67) #2619#2b19#1901#9d3#1484#21ca#1d53#1901#15a0#2294#6a7#
(53,3515) (bfb,10eb) #2cdc#20dc#24f8#20dc#dd6#1c04#29a1#252c#20dc#112f#
(3c8f,8659) (761,a01) #76f3#213f#451c#13c6#71a8#7eae#4c62#13c6#388b#
(be7,1d2f) (bfb,10eb) #269#57#16ff#57#cb0#ecd#1fd#108#57#b51#
(2e3,5ed) (3bef,4b67) #28#28c#15a#18d#428#53b#5de#15a#2f8#3d5#29#
(239,51fd) (94d,8849) #3f96#523#2d52#1bf0#33ce#2a4d#2a4d#2d52#523#dc6#
(ba97,c127) (761,a01) #8c30#6d6#8446#9c4f#47b#8211#ed1#9c4f#a2ef#
(51c5,682f) (53d,775) #37f7#4caf#11bd#3bfc#24d7#4e00#4e00#4caf#254d#
(3365,4085) (761,a01) #1a09#178d#3944#18be#12ef#25e8#3e2e#18be#3a0c#
(1673,288b) (53d,775) #1157#2d7#216c#1da7#92#2611#2611#2d7#724#
(271,3b5) (761,a01) #264#10#ab#31#304#61#98#31#390#
(1aad,1dad) (761,a01) #11e4#14cb#ee#14d5#ec9#1843#d70#14d5#ae8#
(16ab,8b25) (761,a01) #66d0#7d8c#7a2d#4e53#6744#6c52#8b0b#4e53#13d2#
(269d,49b7) (94d,8849) #1032#35a2#148b#1e82#1f9c#1c78#1c78#148b#35a2#35b1#
(28c1,752f) (53d,775) #4164#2fd1#b55#2aa5#5e8e#1aa8#1aa8#2fd1#393a#
(7b5,5153) (53d,775) #1c25#1fa#3263#b7c#1448#2d7e#2d7e#1fa#382c#
(cdf,f79) (3bef,4b67) #8c7#c8d#9d#494#495#7e2#d6b#9d#c4f#66d#e7f#
(371,61bb) (bfb,10eb) #334f#4793#5419#4793#4b03#35da#2c54#6c6#4793#1574#
(14d1,2579) (94d,8849) #183d#217d#1690#fb3#2435#150c#150c#1690#217d#1cb1#
(493b,5b99) (94d,8849) #4fa3#22a8#5526#3f3b#4ba2#5479#5479#5526#22a8#2d1c#
(18d3,9607) (53d,775) #54aa#533b#9480#2675#1e7a#24e1#24e1#533b#3b10#
(75b,847) (53d,775) #5a4#f8#296#ed#480#696#696#f8#6bb#
(2b1,3155) (bfb,10eb) #1e91#222c#dea#222c#23fd#bae#fbb#2fb3#222c#2cc3#
(689,1ba9) (3bef,4b67) #15d3#1198#10ad#579#43c#17ff#b4a#10ad#1595#19f7#10c3#
(1cc1,2ffb) (761,a01) #1b27#2ff1#b4e#198a#2aa4#22cd#1c23#198a#1647#
(3fbf,7a4d) (94d,8849) #371b#77cf#71fd#4520#79c0#31c8#31c8#71fd#77cf#2101#
(c33,d09) (bfb,10eb) #cc8#4b0#c2e#4b0#1b1#a14#30#67f#4b0#1d3#
(5ac1,7613) (53d,775) #4258#5aba#45bb#72c1#5c17#2a4a#2a4a#5aba#4a5#
(90f,a45) (bfb,10eb) #93a#107#82e#107#6eb#799#5ba#494#107#7ef#
(1bf,a03) (3bef,4b67) #23#91e#574#36d#26#268#683#574#62f#67d#12f#
(12b,4f7) (3bef,4b67) #11e#144#1ac#1b6#a2#259#139#1ac#2a6#2df#171#
(bd7,3937) (53d,775) #426#1479#d86#335c#1e2#3252#3252#1479#dca#
(71,331) (53d,775) #2f4#3c#262#279#12e#277#277#3c#1ac#
(961,2e2b) (3bef,4b67) #2d74#9c3#2005#1fc0#168#21f#2c4d#2005#2d23#c64#e34#
(77,87b) (bfb,10eb) #368#390#3bb#390#2c6#4bd#1d#47c#390#313#
(2be7,67b5) (3bef,4b67) #2322#12b9#5c68#1b99#2e09#e24#1443#5c68#14#5231#4707#
(745,1ccd) (3bef,4b67) #143a#180a#1905#38d#e35#f2a#12e7#1905#963#4b#8e#
(e95,495b) (94d,8849) #bc9#19aa#3078#1e94#22cf#6dd#6dd#3078#19aa#aff#
(1ec5,27cb) (94d,8849) #200e#1d28#202e#1805#7df#61f#61f#202e#1d28#102b#
(1ea1,c31d) (3bef,4b67) #8d5f#2e0b#86f6#bf5#21bc#3b0#3a52#86f6#1cb5#fb6#209f#
(8a1,ee3) (53d,775) #e78#10f#ceb#89#a8a#e8c#e8c#10f#95e#
(2fcb,34ab) (3bef,4b67) #dcd#24f5#da5#1c74#b99#2cd5#1b1e#da5#1d15#32da#e0c#
(4b1,6335) (bfb,10eb) #5e52#303b#4e6c#303b#18d#48ab#58e0#4bc2#303b#2018#
(595,6f5) (53d,775) #1fc#1ef#49e#64#2c#635#635#1ef#41f#
(2b9,b87) (bfb,10eb) #c4#54f#9ff#54f#af0#4dd#81c#45b#54f#7ad#
(2159,867b) (761,a01) #83c1#7c9b#65b6#38#42b7#7fb2#70e#38#4a96#
(8b63,8e97) (bfb,10eb) #3fcf#a4a#6bb8#a4a#57ac#1756#45e3#4fd2#a4a#210#
(1b7,5575) (94d,8849) #d50#fc8#81e#36a4#34ec#1f7a#1f7a#81e#fc8#4988#
(13ed,21a3) (94d,8849) #e03#ea2#5ce#1d85#6ee#175d#175d#5ce#ea2#840#
(899,96d) (3bef,4b67) #119#11f#46b#958#420#5ee#221#46b#7c1#6d8#13a#
(3721,4ba7) (761,a01) #277a#21c#27ca#413d#15ca#2b1f#e54#413d#20bf#
(1747,29ad) (bfb,10eb) #747#2#1bc7#2#2858#9f1#1a13#5f1#2#1612#
(11ef,2ad1) (761,a01) #2391#653#3e2#d5c#27cc#1291#2ef#d5c#148#
(264d,6a7f) (94d,8849) #34d0#4f4e#17de#3e78#1b07#646b#646b#17de#4f4e#22a0#
(9fd,143f) (94d,8849) #81d#fe8#d7c#7ce#1214#a3#a3#d7c#fe8#141f#
(4cd,1be5) (761,a01) #a84#cd#e9e#1257#b77#845#173b#1257#ffb#
(903,102d) (53d,775) #8f7#9cb#a27#7e3#93c#dec#dec#9cb#a69#
(2915,3523) (53d,775) #27eb#23d#2faf#323b#b9#303c#303c#23d#14b2#
(1f7,d45) (53d,775) #4ed#af8#9d9#ff#913#41a#41a#af8#473#
(3a85,4999) (94d,8849) #1cae#1305#3191#4e8#3d5#1c4d#1c4d#3191#1305#48c4#
(e53,8ee5) (94d,8849) #128e#611f#20b5#6284#488a#1b34#1b34#20b5#611f#12da#
(577,b7d) (94d,8849) #a7#4c5#8c5#9ed#9a6#923#923#8c5#4c5#7af#
(2113,3f1d) (94d,8849) #395c#3ec9#306d#1a84#125d#f8a#f8a#306d#3ec9#28f4#
(5a5b,a405) (53d,775) #30ad#4560#93cf#5476#a273#6f7c#6f7c#4560#7051#
(5d9,7ff) (3bef,4b67) #28#33#62#65#66#2c#34#62#36#37#29#
(759,33af) (bfb,10eb) #1faa#2f6#1cce#2f6#2150#2fd2#88#1876#2f6#cc9#
(6cd7,896f) (94d,8849) #38fa#3da1#2537#5fb0#1814#3246#3246#2537#3da1#22b9#
(7a5,cd7) (bfb,10eb) #cac#346#987#346#da#98b#470#33a#346#392#
(191,69b) (53d,775) #496#5f3#55a#19#212#679#679#5f3#14d#
(7c19,86f3) (94d,8849) #4c99#5a43#55dc#1410#28e9#4fb4#4fb4#55dc#5a43#32c0#
(1c93,2b0d) (761,a01) #2344#b80#8fd#2277#24f4#2e3#1ff4#2277#6d9#
(647,6d7) (3bef,4b67) #30#385#554#131#66#7c#3b9#554#37f#3c5#55c#
(805,ccd) (bfb,10eb) #6c2#379#1bb#379#b6#22e#a6e#616#379#647#
(94f,1535) (bfb,10eb) #422#25a#cbc#25a#745#b83#aac#113d#25a#1b#
(1199,9485) (761,a01) #1712#430d#7ee0#5f3d#434c#6608#2c90#5f3d#5cf8#
(69d,a03) (53d,775) #4d6#802#92d#366#86c#77a#77a#802#7a8#
(b4d,26bd) (94d,8849) #118e#1cf6#1545#1dc1#19be#1aa5#1aa5#1545#1cf6#7b3#
(131,9cd) (bfb,10eb) #2e6#7a9#945#7a9#5c2#7c9#ac#969#7a9#1f4#
(119b,8b25) (bfb,10eb) #7d16#69d4#1944#69d4#85ab#18b9#11e#6a63#69d4#1071#
(191,8c9) (53d,775) #68e#42#1fa#898#2d0#86a#86a#42#6e1#
(f35,1439) (761,a01) #69d#6f4#7dd#334#a7b#13ae#6be#334#83#
(2977,301f) (94d,8849) #fe5#189#fc8#21ee#2a4#27a3#27a3#fc8#189#2302#
(17,e05) (3bef,4b67) #cd4#adf#672#5f8#aab#b08#772#672#6a#2f5#421#
(40eb,4ff3) (761,a01) #43be#3a6e#1590#11fb#409a#14d7#38aa#11fb#2cdd#
(2b25,58cd) (53d,775) #4aa0#1f27#2a30#5a4#3c78#38cf#38cf#1f27#42cb#
(911,1ee9) (bfb,10eb) #4a4#183f#1c6d#183f#70f#647#12c4#a2a#183f#7d9#
(22cd,940d) (761,a01) #873e#7caf#1404#6d19#361b#2cde#926b#6d19#2768#
(15e5,3563) (761,a01) #1fac#83d#3452#20b3#188e#161d#24ff#20b3#316e#
(4a8d,6335) (761,a01) #3299#1041#2786#5c48#12c6#f18#48e4#5c48#41f7#
(47,4ed) (53d,775) #e#b7#3e8#266#251#2ba#2ba#b7#250#
(ac9,bd5) (3bef,4b67) #3a9#3b4#1ce#89f#85f#581#39b#1ce#8cb#8e6#4a1#
(859,11bd) (3bef,4b67) #8aa#a5b#ff7#989#241#41e#535#ff7#ed6#b27#df6#
(1d37,29ad) (53d,775) #24df#19d4#10eb#14df#8b8#1ef#1ef#19d4#2844#
(629,1157) (761,a01) #bd3#fc9#8d4#e92#c5e#bcf#e68#e92#73d#
(deb,31e5) (94d,8849) #1861#1734#fbb#34a#524#2f9b#2f9b#fbb#1734#74b#
(1a7,5a1) (3bef,4b67) #502#119#1e3#48a#13d#1ef#2e3#1e3#57f#8f#485#
(b,991) (94d,8849) #5bf#55a#21b#280#538#290#290#21b#55a#6db#
(215,725) (94d,8849) #260#389#94#27e#2bb#369#369#94#389#5b8#
(4745,9563) (761,a01) #7158#10c5#2501#35f8#2069#3683#1c59#35f8#19bf#
(297,1c03) (3bef,4b67) #42d#487#19f#12f0#1748#1375#18c4#19f#b64#7b2#c67#
(19d,ba7) (53d,775) #7c#7ff#749#5a8#78f#8b8#8b8#7ff#3e9#
(5ab7,de91) (761,a01) #57c3#2c8c#3ddd#6cb4#88cd#6185#29fe#6cb4#dcc1#
(77,319) (bfb,10eb) #1c8#2c0#228#2c0#307#267#17c#d4#2c0#2df#
(f1,8e7) (bfb,10eb) #272#5f5#49e#5f5#790#8c2#62#313#5f5#43e#
(3df,4495) (53d,775) #36fe#122d#356#2da4#1781#3b9b#3b9b#122d#1a00#
(561d,ce9b) (bfb,10eb) #c45b#207a#69b4#207a#bbf4#c398#a5b1#a0db#207a#7512#
(1bd9,245b) (761,a01) #147#1770#11ce#a45#1297#2116#1a7a#a45#20d5#
(1007,14f3) (bfb,10eb) #1107#13d6#450#13d6#25e#ce4#146d#610#13d6#1348#
(3a1,c4f) (3bef,4b67) #343#5b4#404#3c8#184#a94#221#404#8ee#566#35f#
(2245,2645) (94d,8849) #11f4#2e3#7d7#327#15f8#ce7#ce7#7d7#2e3#d3e#
(24d,e63) (3bef,4b67) #28#33#cbb#7fc#66#ab5#dcc#cbb#36#298#8ff#
(8ff5,d1ef) (761,a01) #23df#8d55#c356#81fc#15f3#a267#1439#81fc#b7c#
(94b,242b) (53d,775) #664#1d35#bdc#40e#5f6#19ef#19ef#1d35#12b6#
(1af,323) (bfb,10eb) #1e0#225#28c#225#129#170#190#2cd#225#15d#
(223,437) (761,a01) #153#1ca#34b#364#3fe#fe#1c3#364#30a#
(761,a01) (761,a01) #28b#5ed#3d5#29b#7e4#5f3#635#29b#8b5#
(38f,107f) (3bef,4b67) #ae3#7e3#e28#1a1#134#e78#2fa#e28#1c9#694#290#
(1405,20dd) (3bef,4b67) #12e3#de0#15c5#1e51#1dde#10e2#2e7#15c5#1bbf#182d#1f4c#
(2e3f,3785) (bfb,10eb) #325c#1dad#a42#1dad#2fef#35a#14ae#2e8c#1dad#2122#
(199,c23) (3bef,4b67) #28#33#841#65#74e#b3e#34#841#41f#6d1#60d#
(3f1,ba1) (94d,8849) #69#59b#8f#759#a1#2f6#2f6#8f#59b#87d#
(4f9,5b1) (53d,775) #311#33b#6f#1c#d0#2eb#2eb#33b#71#
(1cf3,2aa7) (bfb,10eb) #edb#16bb#2330#16bb#1bb5#80e#dc5#23d3#16bb#bd6#
(2257,733f) (94d,8849) #b28#6eec#34f9#2c34#24d4#5fab#5fab#34f9#6eec#e3b#
(437,797) (761,a01) #134#142#467#153#26f#3d0#1f7#153#1c4#
(d0f,2e99) (bfb,10eb) #10dc#d50#b5#d50#24e6#1194#2da3#160f#d50#14a#
(59dd,7b41) (761,a01) #7541#32ce#2db5#3bae#1690#3738#45df#3bae#59bc#
(1115,544f) (53d,775) #4f97#29b7#3761#1343#27ff#1b02#1b02#29b7#1e1a#
(13af,2249) (3bef,4b67) #1e84#a83#1099#9df#16cf#6e2#aac#1099#113a#c40#20a6#
(511,22df) (bfb,10eb) #1f7f#1a6d#86c#1a6d#1ea1#1ae6#1b1d#1914#1a6d#b61#
(f7f,2be1) (3bef,4b67) #655#a4b#960#c07#2944#50f#12f8#960#1910#c42#296d#
(d,1c3) (3bef,4b67) #cc#b6#a#6a#169#197#d#a#154#18c#7b#
(197,4b7) (3bef,4b67) #96#33#378#65#3da#214#342#378#3d4#392#3c4#
(433,1055) (53d,775) #9fd#5af#4b7#fdb#b68#2cc#2cc#5af#c42#
(42bb,8713) (53d,775) #1ee6#5f3a#75e7#60cd#8171#4de6#4de6#5f3a#de0#
(c6f,1057) (3bef,4b67) #a1e#c5b#38b#e6#dab#e4c#ad3#38b#bbb#44e#7dc#
(161,66b) (3bef,4b67) #203#43a#16e#176#cd#508#246#16e#45a#89#3e7#
(ded,114d) (94d,8849) #d40#b7d#146#8f8#83c#844#844#146#b7d#6f3#
(b0f,2d47) (761,a01) #11db#6bc#64c#310#1779#101d#2212#310#1248#
(5545,9973) (bfb,10eb) #4f1a#6152#5fe5#6152#2412#5141#382d#1e9c#6152#5f92#
(a91,e63) (761,a01) #60f#1e2#6c3#c37#5ee#4ca#6e1#c37#b26#
(bfb,10eb) (3bef,4b67) #c3c#1090#4db#f18#1a2#23#fbd#4db#38d#53c#fb1#
(30b,1f43) (94d,8849) #ac8#a4d#246#f49#175f#10a2#10a2#246#a4d#19c2#
(472d,940d) (bfb,10eb) #1674#8343#83c8#8343#4d10#3733#50dc#391a#8343#f59#
(417,499) (761,a01) #1c5#226#301#332#210#3a#455#332#69#
(f43,2e15) (53d,775) #25fe#16c6#1079#75a#2869#ec8#ec8#16c6#756#
(f9d,2aa7) (94d,8849) #210#eb3#2a6d#e7a#16fa#18de#18de#2a6d#eb3#5ec#
(2eb,126d) (3bef,4b67) #202#d88#64c#107c#ba2#162#ee7#64c#dab#22#171#
(30dd,54bb) (94d,8849) #158d#27f4#4b02#36e6#f5a#1606#1606#4b02#27f4#4418#
(985,afd) (53d,775) #38e#30a#1c9#1a3#854#224#224#30a#851#
(e35,171d) (94d,8849) #529#4b1#112b#dc3#14d5#60b#60b#112b#4b1#128#
(14f,1157) (761,a01) #132#ba#864#68a#9dc#302#e4f#68a#417#
(1201,d987) (3bef,4b67) #7eac#cc5e#80b0#82d8#7484#9bf3#42f5#80b0#3d65#621#d5e0#
(e3,535) (761,a01) #269#2fd#316#482#35d#bc#1a0#482#163#
(31f7,33af) (761,a01) #16a3#1db2#2314#e1b#138e#2593#1a77#e1b#29a#
(9841,aca5) (53d,775) #1787#aa97#6235#2494#2219#8122#8122#aa97#5256#
(1709,2a7d) (94d,8849) #264a#299e#bd#14a3#c1#1e41#1e41#bd#299e#1451#
(351,4999) (bfb,10eb) #1299#f5#1d5c#f5#13c1#405e#24ac#148d#f5#1d39#
(2b8d,752f) (53d,775) #1d7e#3926#607b#4da3#3d0#5d9d#5d9d#3926#42ef#
(7bb,206b) (761,a01) #1e4d#1e2f#1f3c#c92#60d#35a#1a25#c92#42b#
(4f3,ee3) (53d,775) #a3c#d7a#698#87c#bd6#cbd#cbd#d7a#8d4#
(b2d,1c5d) (94d,8849) #9ae#9bf#1b1e#64#f7e#2e9#2e9#1b1e#9bf#fe5#
(a57,292d) (53d,775) #1eea#1ef7#f94#1a30#21e8#1311#1311#1ef7#1a74#
(201d,65c3) (3bef,4b67) #709#1311#1642#3236#58a4#1fc8#5e94#1642#5686#381d#30b3#
(275,589) (53d,775) #264#f8#1e0#d3#227#440#440#f8#360#
(9e5,21cb) (53d,775) #1880#1792#1321#18cf#14f8#10c3#10c3#1792#1c3#
(16af,7a8d) (bfb,10eb) #6a50#cac#39e0#cac#1221#1766#e18#26ea#cac#133a#
(a9,76f) (94d,8849) #3af#2a5#69a#156#3c8#23d#23d#69a#2a5#60b#
(1205,1535) (bfb,10eb) #2bf#11aa#1b#11aa#915#1112#b41#68f#11aa#cbc#
(112f,1cc7) (94d,8849) #184a#156c#1690#14e2#1848#ab#ab#1690#156c#1777#
(17d,553) (53d,775) #1c1#211#2a#389#214#c0#c0#211#1f9#
(19eb,418d) (53d,775) #841#1994#2ff2#3f2e#2ce6#43f#43f#1994#14a#
(14b,40d) (94d,8849) #2b4#12d#34#37d#3a4#314#314#34#12d#e0#
(665,33e9) (3bef,4b67) #1798#1bee#2bf5#2558#1fc#2bdb#2078#2bf5#25e8#14b5#25d6#
(1399,17db) (bfb,10eb) #601#68f#aba#68f#151d#1a7#1689#16b5#68f#8a2#
(603,1f57) (3bef,4b67) #1e4b#f21#1a8b#99b#173c#294#1a4a#1a8b#12f5#fee#1459#
(49,1cc3) (3bef,4b67) #14d3#6b4#390#19fa#575#2c6#1323#390#1731#4fc#a47#
(65,70f) (3bef,4b67) #60c#554#8d#351#40a#379#507#8d#423#2ad#5f7#
(16d,68f) (3bef,4b67) #35e#13a#1aa#67b#37b#15e#21d#1aa#1d9#2fa#3fc#
(1d3,1bb9) (bfb,10eb) #123c#18cf#f8e#18cf#ab#80a#189b#1686#18cf#144f#
(641,180d) (3bef,4b67) #12cd#f33#692#fe6#f17#1805#17f5#692#112f#647#aef#
(5369,a2eb) (bfb,10eb) #1987#dd8#5b44#dd8#26f8#a23c#56ed#2e29#dd8#9a71#
(c3b,10eb) (94d,8849) #5a#1e3#9bc#645#a82#6e5#6e5#9bc#1e3#dbe#
(17c5,1943) (bfb,10eb) #a9c#49b#521#49b#8a4#ede#113a#16f7#49b#1884#
(5a47,64bb) (bfb,10eb) #2fdb#624a#3097#624a#1bc0#c10#31a8#15fc#624a#2ef7#
(33b7,7429) (94d,8849) #592f#6531#1227#17ba#6dcf#61da#61da#1227#6531#237a#
(95b,3a19) (bfb,10eb) #1f39#2526#2a74#2526#31ec#283b#b43#e8b#2526#4a9#
(1b3d,1f73) (53d,775) #8dd#1049#3f#1d0e#1cce#201#201#1049#1607#
(775,15b9) (761,a01) #8de#1556#14fa#1a2#cd5#1594#743#1a2#17d#
(279,781) (94d,8849) #759#34c#5fb#6f7#425#3c4#3c4#5fb#34c#703#
(e45,15a7) (761,a01) #f29#1599#891#5c3#113e#735#1439#5c3#d5e#
(1de7,6ea1) (53d,775) #6861#22ab#65f5#5b27#1c66#12f1#12f1#22ab#1de2#
(4ccd,7c57) (761,a01) #6b75#1682#5ef4#5215#849#3b5a#617c#5215#3382#
(60b,b35) (53d,775) #acd#85e#68b#89#ae6#729#729#85e#58b#
(1f3,22df) (94d,8849) #1342#160a#104c#161d#1b4c#8dc#8dc#104c#160a#213f#
(72ad,8167) (53d,775) #25b0#7297#2148#18b0#5536#1b9e#1b9e#7297#21b3#
(4e9,ccd) (761,a01) #677#22f#c12#961#2d2#59f#833#961#355#
(a8d,fa9) (53d,775) #8d7#755#66f#64#67b#37#37#755#665#
(4fc7,c6a3) (bfb,10eb) #31cc#53a5#2d14#53a5#752f#bde2#c5e1#49#53a5#9d74#
(5807,7757) (94d,8849) #3cd3#5875#3cc9#1d94#3a44#39ee#39ee#3cc9#5875#60d3#
(61b,72d) (bfb,10eb) #4f7#65b#72b#65b#3d3#1a5#71c#309#65b#42d#
(45cd,7433) (3bef,4b67) #439f#1e49#8c1#4788#e4#19da#3dc2#8c1#1bf1#3bac#38d5#
(68a3,70db) (bfb,10eb) #325e#442f#3d37#442f#5326#6e8#5a48#1a29#442f#52f#
(cbf,1b01) (53d,775) #1145#bac#12e1#1372#67c#97f#97f#bac#12ad#
(8c59,e0ff) (94d,8849) #e25#442e#af51#265f#439c#c680#c680#af51#442e#88f5#
(6517,a661) (94d,8849) #9dd3#49cc#6f5f#6585#1677#23c8#23c8#6f5f#49cc#621#
(11f,1c3) (53d,775) #199#142#39#85#37#2c#2c#142#171#
(19d,473) (761,a01) #7e#19c#38a#101#4a#69#34d#101#46d#
(11b,b0f) (bfb,10eb) #1b0#11f#74d#11f#7fa#21f#178#4ef#11f#8b1#
(3e6b,5011) (3bef,4b67) #127e#4ae1#9c8#2ef7#256a#1906#3d1d#9c8#c3d#40d7#1238#
(85,f7) (94d,8849) #4f#39#4e#4a#d5#38#38#4e#39#df#
(403,2381) (53d,775) #11f4#2c4#217b#133e#c0d#237f#237f#2c4#e80#
(1e7,4db) (53d,775) #183#d4#33b#7a#247#3f4#3f4#d4#3a2#
(185,847) (53d,775) #5a4#f8#4ab#16f#32b#2ad#2ad#f8#7cb#
(83,409f) (bfb,10eb) #2e0d#1949#9b2#1949#3d3f#224f#3908#2306#1949#180d#
(8fb7,a2eb) (3bef,4b67) #3f03#13b1#422a#643a#380c#825c#8cd5#422a#7fc4#5dad#5e29#
(1ff,605) (3bef,4b67) #274#558#238#538#578#13c#20a#238#1ec#310#2ec#
(891,304f) (761,a01) #13b5#1fbd#1b4b#2972#5fe#1cb7#265f#2972#b5d#
(d81,18af) (94d,8849) #e1#442#afb#15ba#f7e#d66#d66#afb#442#136#
(4519,6a55) (53d,775) #3ca3#53ee#2946#69c1#4f40#4a83#4a83#53ee#57b4#
(4159,b34d) (3bef,4b67) #5bbd#289a#7db7#a6a1#1fdd#9879#8378#7db7#4abd#3bd#8c24#
(1f1b,752f) (53d,775) #4ba0#2fd1#531#1215#5e8e#191f#191f#2fd1#1d15#
(b51,d33) (3bef,4b67) #6a6#548#209#545#2e5#227#c6b#209#b14#661#581#
(1615,324d) (3bef,4b67) #2473#1440#1e43#19d1#2f4e#aca#a21#1e43#104b#3197#fe#
(47,1703) (53d,775) #6f#342#1532#57f#1683#9e#9e#342#7f#
(623,4f9d) (bfb,10eb) #1b89#4931#2cc1#4931#1659#3aaf#3e7a#2bf3#4931#1870#
(7dd7,cb0f) (53d,775) #3d93#561d#63e2#c32f#995f#22f7#22f7#561d#229b#
(1d,bb) (761,a01) #29#37#af#35#b0#47#50#35#3e#
(bbb,7cb1) (bfb,10eb) #4bb8#5001#60fa#5001#21d7#3c7d#4de9#7b96#5001#1acc#
(d,629) (bfb,10eb) #6d#3f1#397#3f1#587#44#4cf#198#3f1#37f#
(b03,11b3) (761,a01) #c75#b58#3f6#1066#976#3c2#363#1066#e64#
(1885,2119) (94d,8849) #1c58#ae6#16d8#8a1#634#1b39#1b39#16d8#ae6#8a5#
(745,9d7) (761,a01) #104#5ee#3fe#92c#7f3#460#5dc#92c#2de#
(6fd,13c7) (94d,8849) #fa5#cad#1368#cce#e42#f8c#f8c#1368#cad#359#
(8ef,13a5) (3bef,4b67) #11c6#d54#11eb#7bf#f7#a00#649#11eb#f46#111f#54f#
(2f1d,3bcf) (94d,8849) #300d#318c#1dc0#a29#2871#1e3e#1e3e#1dc0#318c#74f#
(4831,7691) (94d,8849) #37b8#6733#1cae#64#74df#2154#2154#1cae#6733#3428#
(7fd7,b7eb) (3bef,4b67) #4975#38dc#5c85#711b#6bce#1c64#684d#5c85#4914#2969#4441#
(1d5d,20cf) (3bef,4b67) #4ff#1e08#83f#417#4c8#138c#e42#83f#160#204a#cac#
(146f,3af1) (3bef,4b67) #2f50#3534#253b#2a75#12bb#39ba#2fc6#253b#1c45#fd4#ab8#
(2db,268d) (bfb,10eb) #15a4#a60#24e1#a60#1e1e#d59#1453#fa#a60#10c6#
(e2f,1e31) (761,a01) #595#1fe#a9c#1dfb#1ca2#d20#1a59#1dfb#16ea#
(115d,21b9) (761,a01) #1b9f#1677#5b3#1350#1613#61#a3e#1350#5c0#
(12c5,1b61) (bfb,10eb) #5f0#164e#1468#164e#867#1375#858#be8#164e#2e6#
(a81,61bb) (94d,8849) #3dac#c2#18b2#55a#25bd#2c57#2c57#18b2#c2#335e#
(9fb,20cf) (94d,8849) #147a#2048#1a53#1118#11d7#13f4#13f4#1a53#2048#1e76#
(1d5f,5fcb) (53d,775) #25de#1ebb#2d80#50f4#3367#587c#587c#1ebb#1116#
(4fcd,7a0b) (761,a01) #11aa#66a8#373#34b#d05#75a8#26b#34b#1d3a#
(385f,4721) (94d,8849) #2689#1222#e88#2d6c#7d9#3570#3570#e88#1222#2607#
(89f,a45) (53d,775) #89a#84e#72f#2d7#6eb#391#391#84e#99b#
(305,637) (761,a01) #269#14f#316#228#388#1e9#221#228#18e#
(1f67,799d) (761,a01) #3193#1c3c#6119#718f#3770#71b#4e10#718f#2a63#
(2e33,4267) (3bef,4b67) #d31#798#33a9#2c4c#2d2c#3a48#1261#33a9#2d92#1983#3435#
(13bd,2621) (3bef,4b67) #cb#169d#ef6#1a3d#1d07#1c8f#3ec#ef6#b1a#50d#117#
(aa15,bb19) (761,a01) #22c6#b65e#703a#4571#25d9#beb#9f3a#4571#9fab#
(4fe1,9179) (3bef,4b67) #c5a#6ead#1111#769e#5cb6#3b8c#8939#1111#5815#613#2049#
(2f51,59cb) (761,a01) #5869#497a#9bd#4e4b#2ab7#3193#2e79#4e4b#19c9#
(5569,81d1) (761,a01) #1996#5768#554#94e#6b26#1e23#653a#94e#68d7#
(17f9,2941) (761,a01) #240b#108f#227d#2134#e57#a#ce0#2134#ae5#
(34d,1055) (bfb,10eb) #d1b#fd5#969#fd5#d12#409#505#f13#fd5#169#
(715,3f47) (bfb,10eb) #4c8#221b#3186#221b#1a84#728#19cf#3a56#221b#2bf9#
(287,2699) (bfb,10eb) #126a#9c1#224b#9c1#bbf#2565#1f2c#6ae#9c1#f6#
(1f19,3a09) (53d,775) #2e8e#1fed#3746#381e#635#1c1e#1c1e#1fed#f6d#
(1d9,a43) (3bef,4b67) #7ea#a16#749#30#68#7b#805#749#5#445#3b2#
(8cc7,a99f) (3bef,4b67) #a14a#3d96#2967#4a95#cdf#736f#4fa5#2967#27a3#8900#9cff#
(1477,39d9) (3bef,4b67) #b47#4b8#28eb#2227#40c#1a06#1438#28eb#3618#2ebd#1015#
(cdf,10d3) (bfb,10eb) #2a0#62d#be6#62d#859#217#ca5#10a#62d#f46#
(283,39b) (761,a01) #de#114#4c#2d5#1a8#fe#141#2d5#136#
(a7f,211f) (bfb,10eb) #cfb#60c#1ae4#60c#1a34#69c#4b#f20#60c#1f6b#
(1ef1,2f9f) (bfb,10eb) #dd8#f4#d84#f4#94c#1701#2741#2130#f4#1941#
(d8b,2fa1) (bfb,10eb) #24d5#2247#c7e#2247#13b1#20b3#22b5#1e0b#2247#22d3#
(24fd,51fd) (3bef,4b67) #4985#1ee0#1c38#c0#1296#663#2d3e#1c38#3c62#1848#2da0#
(41cb,d5b3) (94d,8849) #b0e3#2ebd#5bec#b6ba#615#3cbf#3cbf#5bec#2ebd#50b9#
(1edd,25ff) (bfb,10eb) #282#551#1483#551#157#13e3#17c0#1d7a#551#531#
(1e83,23cf) (bfb,10eb) #45d#16e9#f49#16e9#615#e10#19f5#1717#16e9#81d#
(3ca9,97ff) (53d,775) #77eb#5494#76ae#706#2622#6c73#6c73#5494#19a4#
(f11,1be5) (53d,775) #6e7#1664#1512#1b80#1c8#2f8#2f8#1664#1d1#
(2399,3943) (bfb,10eb) #adc#2f7a#649#2f7a#a57#31f6#31f5#dc6#2f7a#38e3#
(44a7,8b37) (761,a01) #645#fa8#26c3#6795#fe7#8610#5a2a#6795#773#
(21d5,49b7) (53d,775) #4259#454b#38a9#4519#4128#880#880#454b#16c#
(2d8f,4ad1) (761,a01) #3e11#2e10#38ea#1618#444b#178#313d#1618#601#
(6c1,b0f) (761,a01) #29b#614#9c9#7d#2c#664#776#7d#393#
(1f5f,33f7) (53d,775) #2ed0#338d#26ba#1b6c#2a6#2cb5#2cb5#338d#305f#
(d3,179) (53d,775) #69#35#33#64#14d#3#3#35#150#
(1a83,626f) (53d,775) #38c7#609d#232c#4708#1835#736#736#609d#2ab7#
(413,2f69) (761,a01) #2bed#71c#1ab6#1c8c#17e7#2da4#1608#1c8c#2f0d#
(1645,2d77) (53d,775) #3ab#15a9#174f#ffd#2324#b06#b06#15a9#298b#
(875,e1b) (53d,775) #506#3a9#7a0#41b#ad6#b5a#b5a#3a9#819#
(30bb,34c7) (761,a01) #1dc6#16b8#183d#2311#14a4#2a9f#2ea9#2311#30b7#
(1a9,1a5f) (761,a01) #ad1#16f6#157e#129e#c9a#1049#171f#129e#935#
(2095,7397) (bfb,10eb) #3c57#186#140e#186#5adb#f04#f8f#4c6d#186#5604#
(26b,5a1) (53d,775) #4ee#3ee#45f#2ed#247#181#181#3ee#587#
(b6b,11cf) (94d,8849) #4b5#fa#2de#4eb#690#72c#72c#2de#fa#68#
(2f9,37d) (94d,8849) #223#214#280#110#342#17b#17b#280#214#a#
(283,5ed) (3bef,4b67) #4a4#4b7#152#af#4ff#1de#5a1#152#f#a1#42a#
(13ab,2707) (761,a01) #254b#1bbd#1a0d#163b#15b8#8b7#1bc9#163b#2406#
(ae1,caf7) (761,a01) #28#464c#4bc1#bc98#ae03#1d81#b0c2#bc98#5213#
(4f53,5161) (53d,775) #799#4574#5034#3a56#2495#1ef0#1ef0#4574#4d1b#
(5f3,5011) (3bef,4b67) #c18#33be#2314#4133#30ae#202c#2c6b#2314#38e8#3ce5#6fd#
(794b,aa65) (53d,775) #aa3d#62c7#6926#64#1343#77b4#77b4#62c7#15c2#
(3b,403) (bfb,10eb) #23d#2f4#124#2f4#251#3d3#e0#233#2f4#d7#
(8d,a45) (53d,775) #52f#48c#81b#64#2c#4ba#4ba#48c#4f9#
(425f,81c5) (94d,8849) #328e#7c0c#498e#5f44#18a8#3dd9#3dd9#498e#7c0c#12a9#
(1fa9,242b) (761,a01) #1118#2036#1a2#1f4f#957#16ca#e24#1f4f#579#
(143f,1751) (bfb,10eb) #68e#216#a14#216#b76#dcd#15ab#1007#216#fdd#
(35,6bf) (53d,775) #62b#40e#5ff#248#210#3f4#3f4#40e#5ae#
(7ff,fdf) (53d,775) #cf6#67a#d59#e2d#1e8#a9c#a9c#67a#951#
(1ed3,29ad) (761,a01) #efd#8af#14ff#14c6#2624#1819#2341#14c6#21d2#
(1705,4aa5) (94d,8849) #24e6#2194#3feb#179d#1ba7#44fb#44fb#3feb#2194#72e#
(10e1,242b) (94d,8849) #ca8#1be1#1af7#10b7#1cd8#48#48#1af7#1be1#1f63#
(995,1b61) (53d,775) #1814#727#35e#db2#1429#ebf#ebf#727#14b4#
(c5f,126d) (94d,8849) #e2d#e5a#27b#2c0#699#103c#103c#27b#e5a#52a#
(1885,1ded) (94d,8849) #b9c#c63#19c1#1964#1b28#cea#cea#19c1#c63#ccc#
(121,247) (bfb,10eb) #147#175#138#175#4d#1d7#be#192#175#130#
(403,763) (53d,775) #cc#5dd#520#69d#5db#40b#40b#5dd#310#
(a3,193) (3bef,4b67) #c4#8e#fd#176#29#b1#68#fd#191#3#ce#
(59,40d) (bfb,10eb) #d7#1c7#396#1c7#106#42#102#2fc#1c7#3d3#
(13e7,17ab) (3bef,4b67) #40d#518#5e4#8bd#1eb#77e#1698#5e4#b7b#1a4#271#
(251,68f) (3bef,4b67) #549#27b#620#57#485#b#596#620#50b#44b#35c#
(214f,37c7) (53d,775) #28a6#33ec#27fc#21f7#291b#29d1#29d1#33ec#3215#
(166f,8e27) (53d,775) #c24#3f5e#5c86#4cd#4264#16ba#16ba#3f5e#3404#
(2b97,47f3) (94d,8849) #3282#3e75#776#2cb4#1777#36f5#36f5#776#3e75#50d#
(13ff,2b01) (53d,775) #86c#2a1d#12e4#b70#55f#26df#26df#2a1d#1072#
(92b,9415) (bfb,10eb) #2f6#740f#646e#740f#166#36e2#5724#17eb#740f#3df5#
(1ed,719) (761,a01) #6e9#527#477#42f#2a9#2dd#653#42f#50b#
(17,4da7) (3bef,4b67) #3b5b#1906#3e08#1ed7#337#2274#3975#3e08#20ca#4b5d#3a2f#
(1a0b,3731) (94d,8849) #bd1#2e23#1b69#2ed2#8d1#3581#3581#1b69#2e23#185#
(2f3b,6c0d) (bfb,10eb) #404a#5c4a#236b#5c4a#2556#4571#3955#449f#5c4a#3dea#
(25,84b) (94d,8849) #10a#48b#518#345#4d#67e#67e#518#48b#34a#
(da3,ea5) (761,a01) #9c2#c48#a5b#a59#62b#260#8#a59#515#
(10c1,5b61) (761,a01) #1e77#2e88#1adc#264#cfa#30ee#1c5a#264#548b#
(332f,3aaf) (bfb,10eb) #2b19#25c6#71f#25c6#327e#1232#2e79#1018#25c6#164b#
(b09,d49) (53d,775) #33b#cf8#2c2#640#3ff#73c#73c#cf8#c98#
(95,24d) (761,a01) #e0#10e#113#241#4a#236#a6#241#114#
(b15,42a7) (bfb,10eb) #1f7a#23b2#fdb#23b2#263b#167c#345d#2813#23b2#1eff#
(3f3b,80f9) (bfb,10eb) #7ccb#7baa#4e78#7baa#1acb#7cb#7a47#c57#7baa#b47#
(8b,dd) (761,a01) #83#51#b4#b3#63#d7#7e#b3#25#
(e5f,7691) (bfb,10eb) #404f#5165#35ca#5165#5f52#65d5#2ad8#749c#5165#685f#
(192b,3a85) (3bef,4b67) #2ae8#26b6#271e#b3#3862#3a82#3844#271e#2e9d#28aa#2d10#
(2d61,34ab) (94d,8849) #20d#21e#1d00#338b#2fea#317a#317a#1d00#21e#3f3#
(3e11,5743) (3bef,4b67) #432a#5b3#4b2a#3596#265d#4479#482b#4b2a#1fe2#23ad#4518#
(3647,484d) (3bef,4b67) #2fc2#e36#2509#b48#4c6#3169#2bfd#2509#dd2#19d2#37c7#
(3621,461b) (94d,8849) #3883#1e6#230b#1ee5#4c6#375a#375a#230b#1e6#125b#
(56a7,b177) (3bef,4b67) #7ead#83c6#7a86#7301#95d#497c#6d31#7a86#88d6#9992#84d7#
(373d,626f) (53d,775) #404f#acd#3af3#5309#919#1077#1077#acd#498e#
(1745,4271) (bfb,10eb) #22ec#369a#291b#369a#2109#3b04#2ceb#2671#369a#4062#
(28c1,36a3) (94d,8849) #9e7#152#1ccf#1a3a#1ae4#cba#cba#1ccf#152#5f5#
(a963,c31d) (3bef,4b67) #90be#86ae#7fde#bbbc#b3f7#7d53#a81c#7fde#567f#7e25#8b6#
(32b,725) (761,a01) #693#417#207#547#371#596#25e#547#485#
(1a25,1c5d) (761,a01) #a61#5c0#1c29#1424#286#db4#bf0#1424#16da#
(25af,30f5) (3bef,4b67) #1aba#c71#2d4f#1235#527#1dc6#1888#2d4f#1ecf#29f6#32f#
(e5,71b) (761,a01) #92#4aa#31a#5fc#21a#34f#6ba#5fc#325#
(c1d,20dd) (3bef,4b67) #10af#c0a#144d#1aa5#d87#1e78#17d5#144d#23a#e43#18df#
(1955,1f15) (94d,8849) #2cc#13d1#113a#1d31#1753#15a5#15a5#113a#13d1#19f1#
(1baf,3d5b) (94d,8849) #2391#3af1#1dad#2643#83#1483#1483#1dad#3af1#2e78#
(c7f,1553) (3bef,4b67) #b8b#87f#81b#137b#66#80a#596#81b#119a#da8#d17#
(2c57,5f1b) (bfb,10eb) #2c47#7f6#17ee#7f6#3e90#5d34#2cb8#54c8#7f6#2f53#
(7a9,ba7) (53d,775) #20b#7b3#3#322#2e2#a93#a93#7b3#33e#
(3ebd,7c57) (94d,8849) #6ce0#410d#c14#2510#654e#60a8#60a8#c14#410d#28dc#
(3ef5,b203) (3bef,4b67) #6a44#3993#6c8#4183#6bc9#9a11#8c14#6c8#297a#973b#825f#
(8c93,8ee5) (bfb,10eb) #3c61#3e3f#1c3b#3e3f#7eea#79c8#47a3#2672#3e3f#7bea#
(ad3,26d7) (3bef,4b67) #200b#e3a#24ca#226d#712#ffd#2022#24ca#243#229e#2330#
(349,3e8d) (761,a01) #4cf#4e5#3257#37c5#31a7#325e#1b8d#37c5#3787#
(347,1cf1) (bfb,10eb) #1367#1b77#1b27#1b77#1464#e1f#160#164c#1b77#d6e#
(f95,15b9) (3bef,4b67) #bd0#148c#4c8#f4a#f34#121a#60d#4c8#b5b#7eb#aa4#
(cfb,191f) (bfb,10eb) #131e#362#9bc#362#61e#7b1#13ac#1668#362#162c#
(2c35,34f9) (53d,775) #753#1bf9#3366#ff3#3195#246b#246b#1bf9#11f3#
(67f,a1b) (761,a01) #153#517#8d4#8ac#1b5#10b#308#8ac#2e3#
(8b9,2081) (761,a01) #119f#c05#13e1#bf9#1902#79e#18cc#bf9#c7f#
(3c5,8f3) (3bef,4b67) #fd#5e8#5bf#4e1#5c5#27c#636#5bf#333#86c#3ac#
(737,2a79) (3bef,4b67) #25ad#129f#25b0#41c#2988#db7#75e#25b0#b19#1c55#4af#
(51d,a07) (53d,775) #304#680#473#4fd#105#873#873#680#825#
(649f,b251) (bfb,10eb) #4759#1c66#76fd#1c66#aab3#55f4#7658#6e30#1c66#a589#
(13ff,228b) (761,a01) #19d8#411#1110#1fb7#1d53#3f5#3f2#1fb7#2e7#
(c1,7a9) (94d,8849) #357#51e#458#6e5#42e#6b3#6b3#458#51e#6e9#
(23f5,2591) (3bef,4b67) #17e4#1f8d#2063#b7d#c98#22aa#55a#2063#1f6f#1fee#218#
(449,16b1) (94d,8849) #6e4#1170#d91#c9d#e3a#b44#b44#d91#1170#291#
(4cdf,8713) (53d,775) #6de0#1016#5f3#4f94#62df#6b27#6b27#1016#5683#
(e0f,15e9) (94d,8849) #347#4bc#ffe#ad5#184#cbf#cbf#ffe#4bc#fe#
(48b9,5743) (94d,8849) #1f5b#5315#1726#4f7#c27#a1b#a1b#1726#5315#3147#
(635,12d3) (94d,8849) #8b4#f#ded#1189#10fd#c70#c70#ded#f#134#
(1747,2917) (761,a01) #1d66#1f61#8e4#b25#18cc#236#173b#b25#110f#
(17bd,2785) (3bef,4b67) #33d#11a8#856#e77#1250#f0d#789#856#6ba#14c4#208#
(bb,1705) (761,a01) #1d#4cd#154d#1516#dce#995#74#1516#415#
(12eb,2455) (3bef,4b67) #814#c5b#472#1779#1a50#1ef#46c#472#1f15#1819#797#
(8b,114b) (761,a01) #6bc#8a1#2f6#1143#33a#754#1121#1143#d84#
(861,919) (bfb,10eb) #19e#3b4#1ba#3b4#109#383#96#3b7#3b4#29#
(4f,a3f) (53d,775) #7b5#11a#1f9#215#50b#250#250#11a#672#
(203,385) (bfb,10eb) #18c#28a#374#28a#102#2a0#13c#1db#28a#382#
(25,bb) (3bef,4b67) #70#44#62#76#aa#b#ab#62#83#37#6#
(67f1,c6a3) (3bef,4b67) #15ad#6b10#2330#56ad#3661#7b7f#9a10#2330#81b0#4bbd#78f4#
(1e39,2953) (3bef,4b67) #175#32f#27e3#157b#64f#f4e#2290#27e3#c26#159e#209a#
(4d43,d3ed) (bfb,10eb) #6ad#4542#e1e#4542#939a#1523#6f24#14a0#4542#925c#
(e7d,168b) (761,a01) #6c4#2c2#2f9#5d7#860#ef1#1d3#5d7#5f0#
(529f,92fb) (761,a01) #41b5#72b2#2f87#8eb2#8a50#8891#91aa#8eb2#769b#
(14dd,1d2f) (94d,8849) #28#194a#7b6#64#469#15c6#15c6#7b6#194a#57d#
(117d,2ad1) (94d,8849) #149c#fc4#29fc#c01#673#21ac#21ac#29fc#fc4#f35#
(1f5b,3587) (761,a01) #d6d#cd8#26c6#2573#333f#a23#2939#2573#1dd#
(66d,7a5) (3bef,4b67) #6b1#94#33f#4c4#66#653#50e#33f#2d7#672#4a8#
(247,47b) (94d,8849) #121#229#467#323#399#b4#b4#467#229#12b#
(18e1,1f93) (3bef,4b67) #1799#390#11ee#1e8a#ee5#b1d#bc3#11ee#dbf#11e#471#
(1cd7,360d) (bfb,10eb) #68#f72#651#f72#1ced#140c#2538#8ae#f72#1bca#
(d03,22cd) (3bef,4b67) #137c#251#2c#19a3#2189#12fd#f5c#2c#1fc5#a36#2141#
(2a73,3bf3) (94d,8849) #1656#165a#2ded#aeb#25a9#33b8#33b8#2ded#165a#2e98#
(95f,17e7) (53d,775) #afa#4b9#132a#35f#98f#b73#b73#4b9#28f#
(67,255b) (bfb,10eb) #62c#1520#743#1520#1f3c#16e8#ccf#1c46#1520#afa#
(ff7,4e23) (761,a01) #2bd5#6be#2962#3cac#461d#1ba7#34d3#3cac#3881#
(2fb,1ccd) (bfb,10eb) #da5#109d#13bb#109d#5a6#17c3#f0a#1355#109d#ff4#
(9e1,245b) (94d,8849) #1e96#1efb#1ea3#1d36#1f15#39e#39e#1ea3#1efb#1361#
(3a01,4a5f) (94d,8849) #2790#2dbb#3afb#3152#4121#3ce3#3ce3#3afb#2dbb#2da4#
(433,ad3) (bfb,10eb) #7ca#1f1#9b2#1f1#300#f7#1b#6f8#1f1#3c6#
(3f5,9e9) (53d,775) #923#640#42f#80b#1da#1e#1e#640#3aa#
(149b,5aad) (3bef,4b67) #3548#ae7#21a3#3648#5636#80e#30a2#21a3#29df#5280#1d59#
(611,111b) (53d,775) #568#56a#8f7#c45#e7e#645#645#56a#88b#
(33b,17ab) (761,a01) #dcf#327#13c4#16d3#14cc#ed1#46a#16d3#110c#
(94d,8849) (bfb,10eb) #193e#4bf7#357#4bf7#11e1#735#6c48#358b#4bf7#29dc#
(14cb,1f43) (bfb,10eb) #1893#b79#1f18#b79#17f3#e53#1786#29d#b79#b2c#
(675,1015) (94d,8849) #fc8#f39#64#22a#ed#4a#4a#64#f39#5c4#
(1b7,5153) (761,a01) #206a#1644#4400#4945#2a02#1785#45db#4945#4243#
(1d9f,28f1) (3bef,4b67) #20f3#151#1f6d#2473#cec#1062#3d7#1f6d#1a89#1359#237c#
(2f7,967) (761,a01) #bd#55e#47f#23f#c1#2cd#70e#23f#68#
(103d,3365) (53d,775) #21d2#2d05#298f#24e9#129f#2ec4#2ec4#2d05#2ae7#
(917,bd5) (94d,8849) #a50#389#895#b08#43f#6d8#6d8#895#389#88f#
(e65,547f) (53d,775) #1a4a#400b#15de#2849#1cca#23dd#23dd#400b#549#
(4f,4af) (53d,775) #e4#139#1ec#fe#129#462#462#139#2d2#
(2ef,5e9) (94d,8849) #135#2de#386#2f4#5c2#28d#28d#386#2de#4ab#
(fcb,1fdf) (94d,8849) #1122#a#1ec6#1386#631#fe2#fe2#1ec6#a#171#
(4165,4e83) (3bef,4b67) #1265#1c7a#321#18db#4705#2542#19#321#31f#e19#3700#
(2f75,459d) (761,a01) #28e9#40e4#10bd#12e4#2308#2de5#3751#12e4#3ae3#
(2f9b,5887) (761,a01) #83e#5709#52cb#207d#31ac#163a#3a45#207d#39cd#
(28af,68cb) (bfb,10eb) #4d6#c90#984#c90#2968#4ca7#50a7#2f29#c90#57e3#
(1111,2d83) (3bef,4b67) #27b6#2a96#967#d06#dd5#5eb#ee1#967#2937#294b#26da#
(2617,4441) (94d,8849) #12c8#3c89#2287#16e1#39d3#125e#125e#2287#3c89#318d#
(17b9,8113) (761,a01) #49c1#536c#6c46#7f43#2052#2cc6#6ff4#7f43#4fe0#
(194f,4a5f) (bfb,10eb) #3f0d#4150#1985#4150#1bcb#356e#2f0d#51e#4150#2b1f#
(53,cd1) (bfb,10eb) #7b9#125#2db#125#531#8cd#acc#60a#125#a59#
(11b7,d5cb) (3bef,4b67) #b565#9d1b#b3a4#d504#1d8c#588b#ba3#b3a4#a276#7df4#213#
(185,80b) (bfb,10eb) #3bf#385#1cd#385#207#54d#402#77#385#4ce#
(23d,661) (53d,775) #125#160#1d1#1bd#65f#584#584#160#55f#
(4723,4f43) (bfb,10eb) #b12#3472#cd#3472#2ae4#1fe2#4df2#47ce#3472#3f2#
(b06f,b3cf) (53d,775) #1179#a4b3#620b#51dd#dac#772c#772c#a4b3#4b55#
(1421,64fd) (bfb,10eb) #5cd5#5182#3c59#5182#35c9#1bca#4fd2#4846#5182#4122#
(145b,1747) (bfb,10eb) #56b#16b8#1093#16b8#8e7#8b7#127c#b0c#16b8#11fd#
(347f,53e1) (94d,8849) #4cea#1d86#50c1#2263#3e62#10c#10c#50c1#1d86#3246#
(1873,19df) (761,a01) #15fc#1933#215#d55#19dc#b79#16e1#d55#16cf#
(76bd,867b) (bfb,10eb) #397a#5cdb#7877#5cdb#1979#3ea0#5ffe#1df7#5cdb#274a#
(39f5,595f) (53d,775) #27f8#4b8d#2f33#2d58#43b3#1d58#1d58#4b8d#2105#
(547,775) (94d,8849) #2c#71e#3f6#6c#686#618#618#3f6#71e#539#
(19d,2f69) (761,a01) #14ba#18db#1d67#1052#235c#8a7#2ef3#1052#279e#
(5e3,36c1) (761,a01) #1016#1559#3092#24#2db6#62e#154c#24#50d#
(469,877) (761,a01) #7e5#4c5#4da#497#499#3e3#208#497#1ca#
(6d09,9967) (bfb,10eb) #1059#268a#72c4#268a#5a22#4614#354f#5abe#268a#9615#
(9b9,3cfb) (bfb,10eb) #1c41#1e5e#2928#1e5e#191c#38bf#1561#1d8d#1e5e#2116#
(5b8d,8b25) (3bef,4b67) #896d#33ca#5dbc#5d9b#5714#2bf9#44e3#5dbc#7540#e50#c9c#
(63d,2d8f) (bfb,10eb) #28da#29e4#2843#29e4#2caa#fd0#266c#3cd#29e4#15e0#
(1a87,2d35) (761,a01) #1113#1e2b#12cb#1e25#1396#fe9#111b#1e25#27d2#
(a27,b7cd) (3bef,4b67) #6d0b#11c6#218a#6dd5#5194#20d#797#218a#13a7#b46a#f78#
(258d,3a0f) (3bef,4b67) #211b#2da8#36e4#3368#c0d#21b7#988#36e4#28eb#1408#f4f#
(b3,12b) (53d,775) #de#e#110#5e#63#11a#11a#e#118#
(a13,1a0b) (3bef,4b67) #12d1#9#153f#160d#b3c#1835#a7e#153f#1858#172a#17b7#
(809,1555) (53d,775) #a22#af8#fe5#c96#765#12b7#12b7#af8#13e7#
(27b,53f) (3bef,4b67) #2f8#31f#389#20e#3eb#184#1cc#389#180#41a#289#
(4c5,ed7) (94d,8849) #c67#46a#5e0#267#b5e#1ea#1ea#5e0#46a#111#
(3aff,7691) (3bef,4b67) #404f#179e#2c#4e55#35ca#3371#1a00#2c#33b3#51d2#60e7#
(4915,573b) (3bef,4b67) #41ea#493d#130#3ae0#8c6#1828#3b86#130#2991#3b8f#2aa7#
(7e5f,89a5) (761,a01) #249c#4b38#7c4f#4f98#21c4#7312#8897#4f98#e4e#
(167,99d) (53d,775) #6d9#66c#2a2#7d5#8e2#138#138#66c#6cd#
(357,f8b) (94d,8849) #1b2#8a7#100#d41#346#869#869#100#8a7#6ac#
(905,daf) (94d,8849) #4fe#861#bc2#a4#3cd#4dd#4dd#bc2#861#190#
(9f5,1e31) (53d,775) #10bd#1760#af2#b66#40a#1c46#1c46#1760#158a#
(56b,76f) (3bef,4b67) #6f8#2d8#21a#244#5a6#5cd#329#21a#5ab#386#376#
(1871,6247) (3bef,4b67) #2a66#56ff#2657#ddb#1c23#2e3#5b6c#2657#6044#2498#5d0f#
(e57,31e5) (761,a01) #2944#16cb#16fc#75b#cb0#30eb#cf1#75b#10d7#
(4f,3ef) (53d,775) #30e#173#249#3b4#23e#107#107#173#1e9#
(2159,2a37) (bfb,10eb) #13c6#1e2a#2909#1e2a#e0b#e0#1b0f#128b#1e2a#758#
(ef,24d) (3bef,4b67) #e0#23c#1ac#11b#19a#4a#7f#1ac#113#10e#114#
(bd,1c3) (3bef,4b67) #147#11b#1ac#119#7d#197#1d#1ac#16a#18c#cd#
(28ed,4cd9) (3bef,4b67) #4510#df4#3015#48ba#4330#17ad#4555#3015#34d8#2ee8#256d#
(254f,3053) (761,a01) #2e0e#244a#134#2caf#302c#1216#245b#2caf#260b#
(b7b,1493) (53d,775) #6f6#743#d16#1319#c82#129c#129c#743#1148#
(377,f13) (3bef,4b67) #a7#cc0#90c#c37#363#cb4#84e#90c#a34#63a#a9b#
(351,835) (3bef,4b67) #a2#57d#a#1b3#58f#1ef#19e#a#41f#18c#a1#
(54d,287b) (761,a01) #bb6#40b#1961#1e6d#264d#254e#2fc#1e6d#aaa#
(1a17,267d) (53d,775) #caf#1ed7#d73#19e4#1a4e#d83#d83#1ed7#196e#
(ad,70f) (94d,8849) #411#14a#381#3c5#338#1de#1de#381#14a#2c4#
(83,ab7) (53d,775) #38f#5f2#325#3d2#473#1dd#1dd#5f2#660#
(9bf,fdf) (94d,8849) #47#586#8d6#e2d#1e8#29#29#8d6#586#c70#
(b5f,1123) (761,a01) #28f#805#61c#7d1#b44#cdc#1d6#7d1#fdb#
(ad,4d9) (3bef,4b67) #7e#4a6#3e7#2fc#352#3cf#67#3e7#4cd#224#a4#
(28d5,2f5f) (bfb,10eb) #14c#1ea6#1765#1ea6#2e22#238b#2cbb#205f#1ea6#c6c#
(26bf,339d) (3bef,4b67) #144e#2551#1625#19d9#d9c#8a2#23ff#1625#1f71#1b97#3334#
(1b47,3247) (53d,775) #27e8#2bb#391#2e7b#22c3#d77#d77#2bb#2bb6#
(51,fd) (53d,775) #6a#fb#c2#90#b0#9a#9a#fb#97#
(3545,4421) (3bef,4b67) #36ab#3e23#1ccc#15ec#3cd3#1a93#2b76#1ccc#3d0d#133c#8b6#
(1,626f) (94d,8849) #28#39#34#64#2c#38#38#34#39#29#
(12f9,4eeb) (761,a01) #1f8e#19b#1526#91f#2a27#11fb#2df2#91f#5db#
(1abf,31fd) (3bef,4b67) #406#17ed#1cea#793#3c#28c1#2b21#1cea#1fc2#1f11#2816#
(731,ff7) (94d,8849) #376#9fd#5ec#bfd#88e#53a#53a#5ec#9fd#a2b#
(4e6d,533f) (94d,8849) #180f#34a2#540#3cc1#5316#1d57#1d57#540#34a2#237#
(ea7,17ab) (761,a01) #1170#76c#6de#aa5#40c#e73#cc2#aa5#df5#
(189d,2b8b) (3bef,4b67) #14ae#29cd#328#48e#22ca#2556#ee7#328#192c#95e#1305#
(6df,1f37) (3bef,4b67) #113d#122d#127a#1cad#1d8f#491#1b82#127a#1981#dfd#e12#
(6dd,15f1) (53d,775) #e17#861#e28#97d#cf6#1420#1420#861#15c8#
(4a23,9f13) (53d,775) #84f2#58b9#6432#302#9596#2c6b#2c6b#58b9#4eef#
(149,6a7) (94d,8849) #160#94#2f2#29a#fc#649#649#2f2#94#353#
(3b2d,3e93) (3bef,4b67) #1fb4#1569#f6a#279#142e#2286#1811#f6a#592#3715#eee#
(49a9,57e3) (94d,8849) #33dc#4bc1#275a#3119#364d#30ab#30ab#275a#4bc1#2709#
(11d7,1b9b) (761,a01) #e78#1321#2a9#b2a#161a#895#3a8#b2a#1332#
(24b9,2e15) (bfb,10eb) #1f88#1d3a#a34#1d3a#22d0#213e#2807#c#1d3a#a41#
(175,4ad1) (761,a01) #1fd7#137b#2a5d#2315#1d60#3700#1b4e#2315#468b#
(f1,56b) (53d,775) #204#315#39f#4ab#1f2#24a#24a#315#3b1#
(1393,1a4b) (761,a01) #bf2#15aa#849#169b#1577#1754#b4f#169b#d3e#
(1105,1a0b) (53d,775) #1788#1303#618#729#2eb#1a08#1a08#1303#15ae#
(b87,d15) (94d,8849) #839#a7#9a2#8cc#566#99a#99a#9a2#a7#c77#
(121,575) (bfb,10eb) #2bd#4cf#492#4cf#160#c4#3#258#4cf#24e#
(577d,5c9f) (bfb,10eb) #1a23#b39#3036#b39#a97#2f2f#bd4#129#b39#3b2a#
(ffb,1129) (94d,8849) #ffa#676#243#9ce#ff2#765#765#243#676#87b#
(6e2f,8713) (3bef,4b67) #37b7#5e98#161b#6fc4#26fc#1838#3761#161b#6a89#a32#8697#
(b921,d1ef) (3bef,4b67) #2b67#30d2#d0da#1e0b#531#4e1#a562#d0da#c2f7#bf9#3488#
(14c5,2d35) (761,a01) #2e1#676#69a#200d#1734#2a03#1c23#200d#5ea#
(10c7,3f71) (761,a01) #20be#59a#21ff#e14#765#3d2c#1714#e14#aad#
(546d,aadb) (94d,8849) #12ef#1e95#611c#4429#4549#92ab#92ab#611c#1e95#985a#
(a63,1417) (53d,775) #12c#10f5#f44#348#1130#1268#1268#10f5#1004#
(1251,33f7) (bfb,10eb) #28b1#b51#15b2#b51#2cc5#2a9b#26ff#540#b51#1e5a#
(245,caf) (761,a01) #c75#ac6#5a0#f0#319#41#324#f0#3e0#
(135d,1d0f) (94d,8849) #93a#3eb#c21#6f1#1077#d#d#c21#3eb#2d9#
(38d,242b) (94d,8849) #b02#22ad#1a28#ed4#1748#22a6#22a6#1a28#22ad#7f0#
(f7,b7eb) (53d,775) #4889#878d#ed4#947b#25ba#3540#3540#878d#5ee7#
(499,7a51) (bfb,10eb) #2c47#df2#b76#df2#7348#2933#5eee#47e0#df2#4f8b#
(501b,5c9f) (53d,775) #3b6a#3b16#3e30#5472#322f#3d73#3d73#3b16#50d4#
(6f7,3ccb) (94d,8849) #2d40#3314#2d4c#2e54#2938#2856#2856#2d4c#3314#2ccd#
(3bed,4f43) (53d,775) #214c#252f#4b87#29b3#6ff#1dcd#1dcd#252f#4363#
(b15,303d) (3bef,4b67) #9f9#17ac#2861#11b8#1267#269a#e48#2861#1c5e#13ce#1be5#
(43f,21cb) (bfb,10eb) #2b8#850#481#850#1398#10e5#a83#18f0#850#1361#
(2b3,7429) (53d,775) #997#4962#268#2bca#27e2#698d#698d#4962#38fd#
(f17,573b) (94d,8849) #1c90#141c#50d4#2489#4ead#1cd8#1cd8#50d4#141c#3b5#
(2c75,380f) (761,a01) #138f#2591#1af2#2532#ed6#1f5e#1f9e#2532#29bb#
(d3,367) (53d,775) #230#146#2b0#23#e5#1ca#1ca#146#23a#
(1661,175f) (3bef,4b67) #164f#21d#5e9#368#8fd#712#8f9#5e9#1036#144f#9eb#
(12af,20bf) (bfb,10eb) #1095#2069#84a#2069#e54#c8d#3af#12f0#2069#d96#
